{
  "keys": ["actionLink"],
  "sms": "REminder: The case(s). from your Financial Consultant(s) is still pending for your validation. Please take action, otherwise the case(s) will expire and needs to be recreated.",
  "email": {
    "subject": "Validation reminder for pending cases",
    "template": "Dear Supervisor,<br /><br />The case(s) from your Financial Consultant(s) is still pending for your validation. Please take action, otherwise the case will be invalid and your Financial Consultant(s) will need to revisit the customer and resubmit the case.<br /><br />Please review the documents and validate the case via the link:<br /><a href='actionLink'>Click here to take action</a><br /><br />AXA Insurance Pte Ltd<p><img src='cid:part1.1234.56789' height='70' width='75'></p>"
  }
}
