{
    "apiVersion": "v1",
    "kind": "Route",
    "metadata": {
        "creationTimestamp": "2017-07-25T13:54:26Z",
        "name": "signdoc-route",
        "namespace": "axasgsit",
        "resourceVersion": "3452337",
        "selfLink": "/oapi/v1/namespaces/axasgsit/routes/signdoc-route",
        "uid": "c55763b4-7140-11e7-bc05-00155dde16b4"
    },
    "spec": {
        "host": "ease-sit.intraeab",
        "path": "/sdweb",
        "port": {
            "targetPort": "8080-tcp"
        },
        "tls": {
            "termination": "edge"
        },
        "to": {
            "kind": "Service",
            "name": "signdoc",
            "weight": 100
        },
        "wildcardPolicy": "None"
    },
    "status": {
        "ingress": [
            {
                "conditions": [
                    {
                        "lastTransitionTime": "2017-07-25T13:54:26Z",
                        "status": "True",
                        "type": "Admitted"
                    }
                ],
                "host": "ease-sit.intraeab",
                "routerName": "router",
                "wildcardPolicy": "None"
            }
        ]
    }
}
