{
	"TYPE": "agent",
	"compCode": "AG",
	"agentCode": "898888",
	"role": "02",
	"name": "F9707898S SYNERGY",
	"profileId": "F9707898S",
	"channel": "SYNERGY",
	"createDate": "7/1/2017",
	"lastUpdateDate": "7/14/2017",
	"company": "Synergy Company",
	"tel": "99898888",
	"mobile": "66898888",
	"email": "yeeling.loh@axa.com.sg",
	"position": "Financial Advisor",
	"manager": "F9707898S SYNERGY(M)",
	"managerCode": "000222",
	"achievements": "AXA Signature, MDRT, SUPER MDRT",
	"authorised": "M9A, M9, M5, HI, M8"
}