{
	"TYPE": "agent",
	"compCode": "AG",
	"agentCode": "000055",
	"role": "02",
	"name": "G2966837T BROKER",
	"profileId": "G2966837T",
	"channel": "BROKER",
	"createDate": "7/1/2017",
	"lastUpdateDate": "7/14/2017",
	"company": "IFA Singapore",
	"tel": "99000055",
	"mobile": "66000055",
	"email": "ishu.gupta@axa.com.sg",
	"position": "Financial Advisor",
	"manager": "G2966837T BROKER(M)",
	"managerCode": "999999",
	"achievements": "AXA Signature, MDRT, SUPER MDRT",
	"authorised": "M9A, M9, M5, HI, M8"
}