{
	"TYPE": "agent",
	"compCode": "AG",
	"agentCode": "009009",
	"role": "02",
	"name": "Nathan Chan",
	"profileId": "nathan.chan",
	"channel": "AGENCY",
	"createDate": "7/1/2025",
	"lastUpdateDate": "7/14/2025",
	"company": "EAB Systems Company Limited",
	"tel": "98765432",
	"mobile": "28765432",
	"email": "nathan.chan@eabsystems.com",
	"position": "Agent",
	"manager": "Cherrie Hung",
	"managerCode": "100009",
	"achievements": "MDRT, SUPER MDRT",
	"authorised": "M9A, M9, M5, HI, M8, M8A, IFAST"
}