{
	"TYPE": "agent",
	"compCode": "AG",
	"agentCode": "333303",
	"role": "02",
	"name": "S9302704D DIRECT",
	"profileId": "S9302704D",
	"channel": "DIRECT",
	"createDate": "7/1/2017",
	"lastUpdateDate": "7/14/2017",
	"company": "AXA Direct",
	"tel": "99422334",
	"mobile": "66422334",
	"email": "clement.chew@axa.com.sg",
	"position": "Agent",
	"manager": "S6302703E DIRECT(M)",
	"managerCode": "900001",
	"achievements": "MDRT, SUPER MDRT",
	"authorised": "M9A, M9, M5, HI"
}