{
	"TYPE": "agent",
	"compCode": "AG",
	"agentCode": "177022",
	"role": "02",
	"name": "T8893588E FUSION",
	"profileId": "T8893588E",
	"channel": "FUSION",
	"createDate": "7/1/2017",
	"lastUpdateDate": "7/14/2017",
	"company": "I am JPK",
	"tel": "99177022",
	"mobile": "66177022",
	"email": "clement.chew@axa.com.sg",
	"position": "Agent",
	"manager": "T8893588E FUSION(M)",
	"managerCode": "888888",
	"achievements": "MDRT, AXA ACHIEVEMENT",
	"authorised": "M9A"
}