{
	"TYPE": "agent",
	"compCode": "AG",
	"agentCode": "199991",
	"role": "02",
	"name": "T8342843C SINGPOST",
	"profileId": "T8342843C",
	"channel": "SINGPOST",
	"createDate": "7/1/2017",
	"lastUpdateDate": "7/14/2017",
	"company": "AXA@Post",
	"tel": "99199991",
	"mobile": "66199991",
	"email": "yeeling.loh@axa.com.sg",
	"position": "Agent",
	"manager": "T8342843C SINGPOST(M)",
	"managerCode": "000001",
	"achievements": "AXA Signature, MDRT",
	"authorised": "M9A, M9, M5, HI, M8"
}