{
  "compCode": "08",
  "create": "alex.tang  on 23 Jan 2018 14:28:42",
  "effDate": "2018-01-23 14:10:34",
  "expDate": "2019-01-23 14:19:47",
  "launchDate": "2018-01-23 14:13:51",
  "type": "fund",
  "releaseDate": "2018-01-23 14:55:59",
  "status": "A",
  "upd": "alex.tang  on 13 Mar 2018 09:28:42",
  "version": 1,
  "ccy": "SGD",
  "ref_no": "HGPE",
  "fundName": {
    "en": "Janus Henderson Global Property Equities Fund (SGD)",
    "zh-Hant": ""
  },
  "fundCode": "HGPE",
  "paymentMethod": ["cash"],
  "annualManageFee": "1.33",
  "assetClass": "equity_real_estate_global",
  "riskRating": 5,
  "isMixedAsset": "N"
}