{
  "compCode": "08",
  "create": "alex.tang  on 23 Jan 2018 14:28:42",
  "effDate": "2018-01-23 14:10:34",
  "expDate": "2019-01-23 14:19:47",
  "launchDate": "2018-01-23 14:13:51",
  "type": "fund",
  "releaseDate": "2018-01-23 14:55:59",
  "status": "A",
  "upd": "alex.tang  on 13 Mar 2018 09:28:42",
  "version": 1,
  "ccy": "USD",
  "ref_no": "MAGC",
  "fundName": {
    "en": "Mirae Asset Asia Great Consumer Equity Fund (USD)",
    "zh-Hant": ""
  },
  "fundCode": "MAGC",
  "paymentMethod": ["cash"],
  "annualManageFee": "1.5",
  "assetClass": "equity_asia_pacific_ex_japan",
  "riskRating": 5,
  "isMixedAsset": "N"
}