{
  "compCode": "08",
  "create": "alex.tang  on 23 Jan 2018 14:28:42",
  "effDate": "2018-01-23 14:10:34",
  "expDate": "2019-01-23 14:19:47",
  "launchDate": "2018-01-23 14:13:51",
  "type": "fund",
  "releaseDate": "2018-01-23 14:55:59",
  "status": "A",
  "upd": "alex.tang  on 23 Jan 2018 14:28:42",
  "version": 1,
  "ccy": "SGD Hedged",
  "ref_no": "AUTR",
  "fundName": {
    "en": "AB US Thematic Research Portfolio (SGD Hedged)",
    "zh-Hant": ""
  },
  "fundCode": "AUTR",
  "paymentMethod": ["cash"],
  "annualManageFee": "1.5",
  "assetClass": "equity_us",
  "riskRating": 4,
  "isMixedAsset": "N"
}