{
  "compCode": "08",
  "create": "alex.tang  on 13 Mar 2018 09:28:42",
  "effDate": "2018-03-13 09:10:34",
  "expDate": "2019-03-13 09:19:47",
  "launchDate": "2018-03-13 09:13:51",
  "type": "fund",
  "releaseDate": "2018-03-13 09:55:59",
  "status": "A",
  "upd": "alex.tang  on 13 Mar 2018 09:28:42",
  "version": 1,
  "ccy": "USD",
  "ref_no": "ALVE",
  "fundName": {
    "en": "AB Low Volatility Equity Fund (USD)",
    "zh-Hant": ""
  },
  "fundCode": "ALVE",
  "paymentMethod": [
    "cash"
  ],
  "annualManageFee": "1.5",
  "assetClass": "equity_global",
  "riskRating": 4,
  "isMixedAsset": "N"
}