{
  "type": "PAPER", 
  "showCol": true,
  "noFixedHeight": true,
  "items": [
    {
      "id": "insuredList",
      "type": "LABEL",
      "hideTitle": true, 
      "style":  {"height": 36, "fontWeight": 600}
    },
    {
      "id": "planList",
      "type": "LABEL",
      "hideTitle": true, 
      "style":  {"height": 36, "fontWeight": 600}
    },
    {
      "type": "LABEL",
      "hideTitle": true, 
      "style":  {"height": 36, "fontWeight": 600}
    }
  ]
}