{
  "type": "layout",
  "formId":"menu_insure",
  "items":[
    {
      "title": "Proposer",
      "subType": "proposer",
      "priority":"insured",
      "items": [
        {
          "id":"insurability",
          "block":"block",
          "items":[
            {
              "type": "block",
              "title":"Height and Weight",
              "items": [
                {
                  "type": "hbox",
                  "items": [
                    {
                      "id": "HW01",
                      "type": "text",
                      "subType": "number",
                      "max": 999,
                      "min":0,
                      "decimal": 2,
                      "title": "Height (m, meter)"
                    },
                    {
                      "id": "HW02",
                      "type": "text",
                      "subType": "number",
                      "max": 999,
                      "min":0,
                      "decimal": 0,
                      "title": "Weight (kg, kilogram)"
                    }
                  ]
                },
                {
                  "id": "HW03",
                  "type": "QRADIOGROUP",
                  "horizontal": true,
                  "align": "left",
                  "title": "Any weight change in the last 12 months? (kg)",
                  "valueTrigger": {
                    "type": "resetTargetValue",
                    "id": "insAllNoInd",
                    "value": "Y,N"
                  },
                  "options": [
                    {
                      "value": "Y",
                      "title": "Yes"
                    },
                    {
                      "value": "N",
                      "title": "No"
                    }
                  ]
                },
                {
                  "type": "hbox",
                  "trigger":{
                    "id":"HW03",
                    "value":"Y",
                    "type": "showIfEqual"
                  },
                  "items": [
                    {
                      "id": "HW03a",
                      "type": "QRADIOGROUP",
                      "horizontal": true,
                      "align": "left",
                      "title": "Weight change",
                      "options": [
                        {
                          "value": "G",
                          "title": "Gain"
                        },
                        {
                          "value": "L",
                          "title": "Lost"
                        }
                      ]
                    },
                    {
                      "id": "HW03b",
                      "type": "text",
                      "subType": "number",
                      "max": 99,
                      "min":0,
                      "decimal": 0,
                      "title": "How many kg?"
                    }
                  ]
                },
                {
                  "type": "hbox",
                  "items":[
                    {
                      "id": "HW03c",
                      "type":"picker",
                      "title": "Reason of weight change",
                      "options":[
                        {
                          "title":"Diet Control",
                          "value":"diet"
                        },
                        {
                          "title":"Exercising",
                          "value":"exercise"
                        },
                        {
                          "title":"Pregnancy",
                          "value":"pregnancy"
                        },
                        {
                          "title":"Post delivery",
                          "value":"pdelivery"
                        },
                        {
                          "title":"Other",
                          "value":"other"
                        }
                      ]
                    },
                    {
                      "id":"HW03c1",
                      "title":{
                        "en":"Please specify/Others"
                      },
                      "type":"text",
                      "max": 100,
                      "trigger":{
                        "id":"HW03c",
                        "type":"showIfEqual",
                        "value":"other"
                      }
                    }
                  ]
                }
              ]
            },
            {
              "type": "block",
              "title": "Insurance History",
              "items":[
                {
                  "id":"INS01",
                  "title":"1. Have you ever made an application or application for reinstatement of a life, disability, accident, medical or critical illness insurance which has been accepted with an extra premium or on special terms, postponed, declined, withdrawn or is still being considered?",
                  "type":"QRADIOGROUP",
                  "horizontal": true,
                  "align": "left",
                  "valueTrigger": {
                    "type": "resetTargetValue",
                    "id": "insAllNoInd",
                    "value": "Y,N"
                  },
                  "options":[
                    {
                      "title":"Yes",
                      "value":"Y"
                    },
                    {
                      "title":"No",
                      "value":"N"
                    }
                  ]
                },
                {
                  "type": "table",
                  "trigger": {
                    "id": "INS01",
                    "type": "showIfEqual",
                    "value": "Y"
                  },
                  "allowEdit": true,
                  "hasBorder": true,
                  "items": [
                    {
                      "id": "INS01a",
                      "type": "text",
                      "title": "Name of Insurance Company",
                      "maxLenght": 50,
                      "width":"20%"
                    },
                    {
                      "type": "table-block",
                      "title": "Type of Coverage",
                      "presentation": "INS01b1$INS01b2$INS01b3$INS01b4$INS01b5",
                      "width":"20%",
                      "validation":"noEmpty",
                      "items":[
                        {
                          "id":"INS01b1",
                          "type":"checkbox",
                          "title":"Life"
                        },
                        {
                          "id":"INS01b2",
                          "type":"checkbox",
                          "title":"Total Permanent Disability"
                        },
                        {
                          "id":"INS01b3",
                          "type":"checkbox",
                          "title":"Critical Illness"
                        },
                        {
                          "id":"INS01b4",
                          "type":"checkbox",
                          "title":"Accident"
                        },
                        {
                          "id":"INS01b5",
                          "type":"checkbox",
                          "title":"Hospitalisation & Surgical  Benefit"
                        }
                      ]
                    },
                    {
                      "id": "INS01c",
                      "type": "MonthYearPicker",
                      "title": "Date Ceased (MM/YYYY)",
                      "optionsTable": "years",
                      "width":"10%",
                      "options": [
                        {
                          "value": "2017",
                          "title": "2017"
                        },
                        {
                          "value": "2016",
                          "title": "2016"
                        },
                        {
                          "value": "2015",
                          "title": "2015"
                        }
                      ]
                    },
                    {
                      "title":"Condition of Special Terms ",
                      "id": "INS01d",
                      "type":"picker",
                      "width":"25%",
                      "options":[
                        {
                          "value":"medical",
                          "title":"Medical"
                        },
                        {
                          "value":"residential",
                          "title":"Residential"
                        },
                        {
                          "value":"financial",
                          "title":"Financial"
                        },
                        {
                          "value":"others",
                          "title":"Others"
                        }
                      ]
                    },
                    {
                      "title":"Decision & Detailed Reason(s) of special terms ",
                      "id":"INS01e",
                      "type":"text",
                      "max":200,
                      "width":"25%"
                    }
                  ]
                },
                {
                  "id":"INS02",
                  "title":"2. Are you presently receiving a disability benefit or incapable for work or have you ever made or intend to make any claim against any insurer for disability, accident, medical care, hospitalisation, critical illness and/or other benefits?",
                  "type":"QRADIOGROUP",
                  "horizontal": true,
                  "align": "left",
                  "valueTrigger": {
                    "type": "resetTargetValue",
                    "id": "insAllNoInd",
                    "value": "Y,N"
                  },
                  "options":[
                    {
                      "title":"Yes",
                      "value":"Y"
                    },
                    {
                      "title":"No",
                      "value":"N"
                    }
                  ]
                },
                {
                  "type": "table",
                  "trigger": {
                    "id": "INS02",
                    "type": "showIfEqual",
                    "value": "Y"
                  },
                  "allowEdit": true,
                  "hasBorder": true,
                  "items": [
                    {
                      "id": "INS02a",
                      "type": "text",
                      "title": "Name of Insurance Company",
                      "maxLenght": 50,
                      "width":"20%"
                    },
                    {
                      "type": "table-block",
                      "title": "Type of the Claim",
                      "presentation": "INS01a1$INS01a2$INS01a3$INS01a4$INS01a5",
                      "width":"20%",
                      "validation":"noEmpty",
                      "items":[

                        {
                          "id":"INS02b2",
                          "type":"checkbox",
                          "title":"Total Permanent Disability"
                        },
                        {
                          "id":"INS02b3",
                          "type":"checkbox",
                          "title":"Critical Illness"
                        },
                        {
                          "id":"INS02b4",
                          "type":"checkbox",
                          "title":"Accident"
                        },
                        {
                          "id":"INS02b5",
                          "type":"checkbox",
                          "title":"Hospitalisation & Surgical  Benefit"
                        }
                      ]
                    },
                    {
                      "id": "INS02c",
                      "type": "MonthYearPicker",
                      "title": "Date Ceased (MM/YYYY)",
                      "optionsTable": "years",
                      "width":"10%",
                      "options": [
                        {
                          "value": "2017",
                          "title": "2017"
                        },
                        {
                          "value": "2016",
                          "title": "2016"
                        },
                        {
                          "value": "2015",
                          "title": "2015"
                        }
                      ]
                    },
                    {
                      "id": "INS02d",
                      "title":"Medical Condition",
                      "type":"picker",
                      "width":"25%",
                      "options":[
                        {
                          "value":"medical",
                          "title":"Medical"
                        },
                        {
                          "value":"residential",
                          "title":"Residential"
                        },
                        {
                          "value":"financial",
                          "title":"Financial"
                        },
                        {
                          "value":"others",
                          "title":"Others"
                        }
                      ]
                    },
                    {
                      "title":"Claim Details (Duration of hospitalisation /offwork, treatment, follow-up etc)",
                      "id":"INS02e",
                      "type":"text",
                      "max":200,
                      "width":"25%"
                    }
                  ]
                }

              ]
            },
            {
              "title":"Lifestyle and Habits",
              "type":"block",
              "items":[
                {
                  "id":"LIFESTYLE01",
                  "title":"1. Have you smoked or used any tobacco, nicotine or smokeless tobacco products (e.g. cigarettes, cigar, e-cigarettes or pipes) within the past 12 months?",
                  "type":"QRADIOGROUP",
                  "disabled": true,
                  "horizontal": true,
                  "align": "left",
                  "options":[
                    {
                      "value":"Y",
                      "title":"Yes"
                    },
                    {
                      "value":"N",
                      "title":"No"
                    }
                  ]
                },
                {
                  "type":"block",
                  "trigger":{
                    "id":"LIFESTYLE01",
                    "type":"showIfEqual",
                    "value":"Y"
                  },
                  "items":[
                    {
                      "type":"HBOX",
                      "items":[
                        {
                          "id":"LIFESTYLE01a",
                          "type":"pipcker",
                          "title":"Type of product (eg. Cigarettes, cigar, e-Cig, nicotine patch, etc.)",
                          "options":[
                            {
                              "value":"cigarettes",
                              "title":"Cigarettes"
                            },
                            {
                              "value":"cigar",
                              "title":"Cigar"
                            },
                            {
                              "value":"eCi",
                              "title":"e-Cigarettes"
                            },
                            {
                              "value":"nicotine",
                              "title":"Nicotine patch"
                            },
                            {
                              "value":"other",
                              "title":"Other"
                            }
                          ]
                        },
                        {
                          "id":"LIFESTYLE01a_OTH",
                          "type":"text",
                          "max":50,
                          "trigger":{
                            "id":"LIFESTYLE01a",
                            "type":"showIfEqual",
                            "value":"other"
                          }
                        }
                      ]
                    },
                    {
                      "type":"HBOX",
                      "items":[
                        {
                          "id":"LIFESTYLE01b",
                          "title":"Number of products smoked per day",
                          "type":"text",
                          "subType":"number",
                          "max":999
                        },
                        {
                          "id":"LIFESTYLE01c",
                          "title":"Number of years smoked",
                          "type":"text",
                          "subType":"number",
                          "max":99
                        }
                      ]
                    }
                  ]
                },
                {
                  "id":"LIFESTYLE02",
                  "type":"QRADIOGROUP",
                  "horizontal": true,
                  "align": "left",
                  "title":"2. Do you consume alcohol?",
                  "valueTrigger": {
                    "type": "resetTargetValue",
                    "id": "insAllNoInd",
                    "value": "Y,N"
                  },
                  "options":[
                    {
                      "value":"Y",
                      "title":"Yes"
                    },
                    {
                      "value":"N",
                      "title":"No"
                    }
                  ]
                },
                {
                  "type": "BLOCK",
                  "trigger":
                    {
                    "id":"LIFESTYLE02",
                    "value":"Y",
                    "type":"showIfEqual"
                    },
                  "items":
                  [
                    {
                      "type":"HBOX",
                      "items":
                      [
                        { "type":"qtitle",
                          "key":"LIFESTYLE02-b",
                          "title":"How many alcoholic drinks do you drink {{per week}}, on average?",
                          "mandatory":true,
                          "needToHighlight": true
                        }
                      ]
                    },
                    {
                      "id": "LifeStyleNote",
                      "type": "PARAGRAPH",
                      "style": {
                      "color": "#ec4d33"},
                      "content": "<p style='padding: 0px; line-height: 16px'>Note: ONE standard unit of alcoholic drink equates to Beer 330ml/can, Wine 125ml/glass, or Spirits 30ml/cup.</p>"
                    },
                    {
                      "type":"HBOX",
                      "key": "checkboxgroup",
                      "validation": "function(i,v,rv,vrv){if(v.LIFESTYLE02a_1!='Y' && v.LIFESTYLE02b_1!='Y' && v.LIFESTYLE02c_1!='Y'){return 301;}}",
                      "items":[
                        {
                          "id":"LIFESTYLE02a_1",
                          "type":"checkbox",
                          "title":"Beer (330 ml/can)"
                        },
                        {
                          "id":"LIFESTYLE02b_1",
                          "type":"text",
                          "subType":"number",
                          "title":"can(s)",
                          "max":999,
                          "trigger":{
                            "id":"LIFESTYLE02a_1",
                            "type":"showIfEqual",
                            "value":"Y"
                          }
                        }
                      ]
                    },
                    {
                      "type":"HBOX",
                      "items":[
                        {
                          "id":"LIFESTYLE02b_1",
                          "type":"checkbox",
                          "title":"Wine (125ml/glass)"
                        },
                        {
                          "id":"LIFESTYLE02b_2",
                          "type":"text",
                          "subType":"number",
                          "title":"glass(es)",
                          "max":999,
                          "trigger":{
                            "id":"LIFESTYLE02b_1",
                            "type":"showIfEqual",
                            "value":"Y"
                          }
                        }
                      ]
                    },
                    {
                      "type":"HBOX",
                      "items":[
                        {
                          "id":"LIFESTYLE02c_1",
                          "type":"checkbox",
                          "title":"Spirits (30ml/cup)"
                        },
                        {
                          "id":"LIFESTYLE02c_2",
                          "type":"text",
                          "subType":"number",
                          "title":"cup(s)",
                          "max":999,
                          "trigger":{
                            "id":"LIFESTYLE02c_1",
                            "type":"showIfEqual",
                            "value":"Y"
                          }
                        }
                      ]
                    }

                  ]
                },
                {
                  "id":"LIFESTYLE03",
                  "type":"QRADIOGROUP",
                  "horizontal": true,
                  "align": "left",
                  "title":"3. Have you ever used any habit forming drugs or narcotics or been treated for drug habits? ",
                  "valueTrigger": {
                    "type": "resetTargetValue",
                    "id": "insAllNoInd",
                    "value": "Y,N"
                  },
                  "options":[
                     {
                      "value":"Y",
                      "title":"Yes"
                    },
                    {
                      "value":"N",
                      "title":"No"
                    }
                  ]
                },
                {
                  "type":"talbe",
                  "hasBorder":true,
                  "allowEdit":true,
                  "trigger":{
                    "id":"LIFESTYLE03",
                    "value":"Y",
                    "type":"showIfEqual"
                  },
                  "items":[
                    {
                      "id":"LIFESTYLE03a",
                      "type":"text",
                      "title":"Substances used",
                      "max":50,
                      "width":"20%"
                    },
                    {
                      "id": "LIFESTYLE03b",
                      "title": "Date Commenced (MM/YYYY)",
                      "type": "MONTHYEARPICKER",
                      "optionsTable": "years",
                      "width":"20%",
                      "options": [
                        {
                          "value": "2017",
                          "title": "2017"
                        },
                        {
                          "value": "2016",
                          "title": "2016"
                        },
                        {
                          "value": "2015",
                          "title": "2015"
                        }
                      ]
                    },
                    {
                      "id": "LIFESTYLE03c",
                      "title": "Date Ceased (MM/YYYY)",
                      "type": "MONTHYEARPICKER",
                      "optionsTable": "years",
                      "width":"20%",
                      "options": [
                        {
                          "value": "2017",
                          "title": "2017"
                        },
                        {
                          "value": "2016",
                          "title": "2016"
                        },
                        {
                          "value": "2015",
                          "title": "2015"
                        }
                      ]
                    },
                    {
                      "id":"LIFESTYLE03d",
                      "title":"Details (e.g. Treatment, Any other medical condition, Any relapses/complications etc) ",
                      "type":"text",
                      "max":200,
                      "width":"40%"
                    }
                  ]
                },
                {
                  "id":"LIFESTYLE04",
                  "type":"QRADIOGROUP",
                  "horizontal": true,
                  "align": "left",
                  "title":"4. Do you have any intention of residing outside Singapore for more than 6 months?",
                  "valueTrigger": {
                    "type": "resetTargetValue",
                    "id": "insAllNoInd",
                    "value": "Y,N"
                  },
                  "options":[
                     {
                      "value":"Y",
                      "title":"Yes"
                    },
                    {
                      "value":"N",
                      "title":"No"
                    }
                  ]
                },
                {
                  "type":"talbe",
                  "hasBorder":true,
                  "allowEdit":true,
                  "trigger":{
                    "id":"LIFESTYLE04",
                    "value":"Y",
                    "type":"showIfEqual"
                  },
                  "items":[
                    {
                      "id":"LIFESTYLE04a",
                      "type":"PICKER",
                      "subType": "limit",
                      "title":"Country",
                      "width":"20%",
                      "options": "residency"
                    },
                    {
                      "id":"LIFESTYLE04b",
                      "type":"text",
                      "title":"City",
                      "width":"25%",
                      "max":50
                    },
                    {
                      "id":"LIFESTYLE04c",
                      "type":"text",
                      "subType":"number",
                      "title":"Duration(how many days per year)",
                      "width":"15%",
                      "max":5
                    },
                    {
                      "type":"table-block",
                      "title":"Reason",
                      "presentation":"LIFESTYLE04d",
                      "width":"50%",
                      "items":[
                        {
                          "id":"LIFESTYLE04d",
                          "type":"QRADIOGROUP",
                          "detailSeq":4,
                          "options":[
                            {
                              "title":"Permanent Residence",
                              "value": "permanent"
                            },
                            {
                              "title":"Business / Work",
                              "value": "work"
                            },
                            {
                              "title":"Study",
                              "value": "study"
                            },
                            {
                              "title":"Country of birth",
                              "value": "cob"
                            },
                            {
                              "title":"Place where family members or relatives residing",
                              "value": "family"
                            },
                            {
                              "title":"Immigration",
                              "value": "immigrate"
                            },
                            {
                              "title":"Visit family/relatives/friends",
                              "value": "visit"
                            },
                            {
                              "title":"Others",
                              "value": "others"
                            }

                          ]
                        },
                        {
                          "type": "TEXT",
                          "title": "Please specify reason",
                          "id":"LIFESTYLE04d8_OTH",
                          "length":50,
                          "detailSeq":4,
                          "trigger": {
                            "id": "LIFESTYLE04d",
                            "type": "showIfEqual",
                            "value": "others"
                          }

                        }
                        ]
                      }
                  ]
                },
                {
                  "id":"LIFESTYLE05",
                  "type":"QRADIOGROUP",
                  "horizontal": true,
                  "align": "left",
                  "title":"Do you participate or intend to participate in any hazardous activities related to your occupation or recreation such as diving, mountaineering, skydiving, parachuting, hang gliding, motor sports or aviation (excluding flying as a passenger on a regular scheduled airline)?",
                  "valueTrigger": {
                    "type": "resetTargetValue",
                    "id": "insAllNoInd",
                    "value": "Y,N"
                  },
                  "options":[
                     {
                      "value":"Y",
                      "title":"Yes"
                    },
                    {
                      "value":"N",
                      "title":"No"
                    }
                  ]
                },
                {
                  "type":"table",
                  "hasBorder":true,
                  "allowEdit":true,
                  "trigger":{
                    "id":"LIFESTYLE05",
                    "value":"Y",
                    "type":"showIfEqual"
                  },
                  "items":[
                    {
                      "type":"table-block",
                      "presentation":"LIFESTYLE05a",
                      "width":"40%",
                      "items":
                      [
                        {
                          "id":"LIFESTYLE05a",
                          "type":"picker",
                          "title":"Type of hazardous activities",
                          "options":[
                            {
                              "title":"Diving/scuba diving",
                              "value":"diving"
                            },
                            {
                              "title":"Mountaineering",
                              "value":"mountaineering"
                            },
                            {
                              "title":"Skydiving",
                              "value":"skydiving"
                            },
                            {
                              "title":"Parachuting",
                              "value":"parachuting"
                            },
                            {
                              "title":"Hand gliding",
                              "value":"handGliding"
                            },
                            {
                              "title":"Motor sports",
                              "value":"motor"
                            },
                            {
                              "title":"Aviation (other than fare-paying passenger) ",
                              "value":"aviation"
                            },
                            {
                              "title":"Other",
                              "value":"other"
                            }
                          ]
                        },
                        {
                          "id":"LIFESTYLE05a_OTH",
                          "type":"text",
                          "title":{
                            "en":"Please specify"
                          },
                          "trigger":{
                            "id":"LIFESTYLE05a",
                            "type":"showIfEqual",
                            "value":"other"
                          },
                          "max":50
                        }
                      ]
                    },
                    {
                      "id":"LIFESTYLE05b",
                      "title":"Frequency (per year)",
                      "type":"text",
                      "subType":"number",
                      "max":5,
                      "width":"20%"
                    },
                    {
                      "id":"LIFESTYLE05c",
                      "title":"Details (e.g. Expertise, level of participation, experience etc)",
                      "type":"text",
                      "max":200,
                      "width":"40%"
                    }
                  ]
                }
              ]
            },
            {
              "title":"",
              "type":"block",
              "items":[
                {
                  "type":"QRADIOGROUP",
                  "id":"FAMILY01",
                  "title":"Has your biological mother, father, or any sister or brother been diagnosed prior to age 60 with any of the following?  Cancer, heart disease, stroke, diabetes, Huntington's disease, polycystic kidney disease, Multiple Sclerosis, Alzheimer's or any other inherited conditions.",
                  "valueTrigger": {
                    "type": "resetTargetValue",
                    "id": "insAllNoInd",
                    "value": "Y,N"
                  },
                  "options": [
                    {
                      "value": "Y",
                      "title": "Yes"
                    },
                    {
                      "value": "N",
                      "title": "No"
                    }
                  ]
                },
                {
                  "type":"table",
                  "hasBorder":true,
                  "allowEdit":true,
                  "trigger":{
                    "id":"FAMILY01",
                    "value":"Y",
                    "type":"showIfEqual"
                  },
                  "items":[
                    {
                      "id":"FAMILY01a",
                      "title":"Relationship",
                      "type":"picker",
                      "options":[
                        {
                          "title":"Mother",
                          "value":"monther"
                        },
                        {
                          "title":"father",
                          "value":"Father"
                        },
                        {
                          "title":"Brother",
                          "value":"Brother"
                        },
                        {
                          "title":"Sister",
                          "value":"Sister"
                        }
                      ],
                      "width":"15%",
                      "max":50
                    },
                    {
                      "id":"FAMILY01b",
                      "title":"Medical Condition",
                      "type":"text",
                      "width":"50%",
                      "max":200
                    },
                    {
                      "id":"FAMILY01c",
                      "title":"Age of Onset",
                      "type":"text",
                      "subType":"number",
                      "width":"15%",
                      "max":59
                    }
                  ]
                }
              ]
            },
            {
              "title":"Details of Regular Doctor",
              "type":"block",
              "items":[
                {
                  "id":"REG_DR01",
                  "title":"Do you have a regular doctor?",
                  "type":"QRADIOGROUP",
                  "horizontal": true,
                  "align": "left",
                  "valueTrigger": {
                    "type": "resetTargetValue",
                    "id": "insAllNoInd",
                    "value": "Y,N"
                  },
                  "options": [
                    {
                      "value": "Y",
                      "title": "Yes"
                    },
                    {
                      "value": "N",
                      "title": "No"
                    }
                  ]
                },
                {
                  "type":"table",
                  "hasBorder":true,
                  "allowEdit":true,
                  "trigger":{
                    "id":"REG_DR01",
                    "value":"Y",
                    "type":"showIfEqual"
                  },
                  "items":[
                    {
                      "id":"REG_DR01a",
                      "title":"Name of Doctor",
                      "type":"text",
                      "width":"20%",
                      "max":50
                    },
                    {
                      "id":"REG_DR01b",
                      "title":"Name & Address of clinic/hospital",
                      "type":"text",
                      "width":"35%",
                      "max":200
                    },
                    {
                      "id":"REG_DR01c",
                      "title":"Date of last consultation",
                      "type":"datepicker",
                      "max":0,
                      "min":100,
                      "width":"15%"
                    },
                    {
                      "type":"table-block",
                      "title":"Details of Consultations (including Reason, Diagnosis, Treatment, etc.)",
                      "presentation":"REG_DR01d",
                      "width":"30%",
                      "items":[
                        {
                          "id":"REG_DR01d",
                          "title":"Details of Consultations (including Reason, Diagnosis, Treatment, etc.)",
                          "type":"picker",
                          "options":[
                            {
                              "title":"Minor ailments (e.g. cough/flu/sore throat/fever)",
                              "value":"minor"
                            },
                            {
                              "title":"Other",
                              "value":"other"
                            }
                          ]
                        },
                        {
                          "id":"REG_DR01d",
                          "type":"TEXTAREA",
                          "max":1000
                        }
                      ]
                    }
                  ]
                }
              ]
            },
            {
              "type": "block",
              "title": "Medical and Health Information",
              "items": [
                {
                  "type": "qTitle",
                  "id": "HEALTH01_LABEL",
                  "title": "1. Have you ever had, or been told you had, or received treatment for:"
                },

                {
                  "id": "HEALTH02",
                  "type": "QRADIOGROUP",
                  "horizontal": true,
                  "align": "left",
                  "title": "(a) Chest pain, high blood pressure, heart attack, stroke, diabetes, or any heart, blood or vascular disease or disorder?",
                  "valueTrigger": {
                    "type": "resetTargetValue",
                    "id": "insAllNoInd",
                    "value": "Y,N"
                  },
                  "options": [
                    {
                      "value": "Y",
                      "title": "Yes"
                    },
                    {
                      "value": "N",
                      "title": "No"
                    }
                  ]
                },
                {
                  "type": "table",
                  "trigger": {
                    "id": "HEALTH02",
                    "type": "showIfEqual",
                    "value": "Y"
                  },
                  "allowEdit": true,
                  "hasBorder": true,
                  "items": [
                    {
                      "id": "HEALTH01a",
                      "type": "text",
                      "title": "Medical Condition/Diagnosis",
                      "max": 200,
                      "width":"14%"
                    },
                    {
                      "id": "HEALTH02b",
                      "title": "Year of diagnosis",
                      "type": "picker",
                      "subType": "selectField",
                      "optionsTable": "years",
                      "width":"10%",
                      "options": [
                        {
                          "value": "2017",
                          "title": "2017"
                        },
                        {
                          "value": "2016",
                          "title": "2016"
                        },
                        {
                          "value": "2015",
                          "title": "2015"
                        }
                      ]
                    },
                    {
                      "id": "HEALTH02c",
                      "type": "text",
                      "title": "Type of test done (if any)",
                      "max": 200,
                      "width":"14%"
                    },
                    {
                      "id": "HEALTH02d",
                      "type": "datepicker",
                      "subType":"date",
                      "title": "Date of test done (if any)",
                      "max":0,
                      "min":100,
                      "width":"10%"
                    },
                    {
                      "id": "HEALTH02e",
                      "type": "QRADIOGROUP",
                      "align": "left",
                      "title": "Test result (if any)",
                      "max": 200,
                      "width":"14%",
                      "options": [
                        {
                          "value": "Y",
                          "title": "Normal"
                        },
                        {
                          "value": "N",
                          "title": "Abnormal"
                        }
                      ]
                    },
                    {
                      "id": "HEALTH02f",
                      "type": "text",
                      "title": "Details  (Medication/Treatment / Follow up / Complication) ",
                      "width":"10%",
                      "max": 200
                    },
                    {
                      "id": "HEALTH02g",
                      "type": "text",
                      "title": "Name of Doctor",
                      "width":"14%",
                      "max": 200
                    },
                    {
                      "id": "HEALTH02h",
                      "type": "text",
                      "title": "Address of Hospital/Clinic",
                      "width":"14%",
                      "max": 200
                    }
                  ]
                },

                {
                  "id": "HEALTH03",
                  "type": "QRADIOGROUP",
                  "horizontal": true,
                  "align": "left",
                  "title": "(b) Cancer, melanoma, tumour, cysts, lump, polyp or growth of any kind?",
                  "valueTrigger": {
                    "type": "resetTargetValue",
                    "id": "insAllNoInd",
                    "value": "Y,N"
                  },
                  "options": [
                    {
                      "value": "Y",
                      "title": "Yes"
                    },
                    {
                      "value": "N",
                      "title": "No"
                    }
                  ]
                },
                {
                  "type": "table",
                  "trigger": {
                    "id": "HEALTH03",
                    "type": "showIfEqual",
                    "value": "Y"
                  },
                  "allowEdit": true,
                  "hasBorder": true,
                  "items": [
                    {
                      "id": "HEALTH03a",
                      "type": "text",
                      "title": "Medical Condition/Diagnosis",
                      "max": 200,
                      "width":"14%"
                    },
                    {
                      "id": "HEALTH03b",
                      "title": "Year of diagnosis",
                      "type": "picker",
                      "subType": "selectField",
                      "optionsTable": "years",
                      "width":"10%",
                      "options": [
                        {
                          "value": "2017",
                          "title": "2017"
                        },
                        {
                          "value": "2016",
                          "title": "2016"
                        },
                        {
                          "value": "2015",
                          "title": "2015"
                        }
                      ]
                    },
                    {
                      "id": "HEALTH03c",
                      "type": "text",
                      "title": "Type of test done (if any)",
                      "max": 200,
                      "width":"14%"
                    },
                    {
                      "id": "HEALTH03d",
                      "type": "datepicker",
                      "subType":"date",
                      "title": "Date of test done (if any)",
                      "max":0,
                      "min":100,
                      "width":"10%"
                    },
                    {
                      "id": "HEALTH03e",
                      "type": "QRADIOGROUP",
                      "align": "left",
                      "title": "Test result (if any)",
                      "max": 200,
                      "width":"14%",
                      "options": [
                        {
                          "value": "Y",
                          "title": "Normal"
                        },
                        {
                          "value": "N",
                          "title": "Abnormal"
                        }
                      ]
                    },
                    {
                      "id": "HEALTH03f",
                      "type": "text",
                      "title": "Details  (Medication/Treatment / Follow up / Complication) ",
                      "width":"10%",
                      "max": 200
                    },
                    {
                      "id": "HEALTH03g",
                      "type": "text",
                      "title": "Name of Doctor",
                      "width":"14%",
                      "max": 200
                    },
                    {
                      "id": "HEALTH03h",
                      "type": "text",
                      "title": "Address of Hospital/Clinic",
                      "width":"14%",
                      "max": 200
                    }
                  ]
                },
                {
                  "id": "HEALTH04",
                  "type": "QRADIOGROUP",
                  "horizontal": true,
                  "align": "left",
                  "title": "(c) Kidney disease (e.g. stone, cyst), mental or nervous disorder (e.g. anxiety, depression), vision or hearing problems (e.g. cataract, meniere’s disease), digestive system  disorder (e.g. gastritis), endocrine disease (e.g. thyroid problem), liver disease (e.g. fatty liver), nervous system disorder(e.g. epilepsy, motor neurone disease), respiratory system disorder (e.g. asthma), skin disease(e.g. psoriasis), urinary system disorder (e.g. blood/protein in urine), spinal or muscle problems (e.g. slipped disc, dystrophy)?",
                  "valueTrigger": {
                    "type": "resetTargetValue",
                    "id": "insAllNoInd",
                    "value": "Y,N"
                  },
                  "options": [
                    {
                      "value": "Y",
                      "title": "Yes"
                    },
                    {
                      "value": "N",
                      "title": "No"
                    }
                  ]
                },
                {
                  "type": "table",
                  "trigger": {
                    "id": "HEALTH04",
                    "type": "showIfEqual",
                    "value": "Y"
                  },
                  "allowEdit": true,
                  "hasBorder": true,
                  "items": [
                    {
                      "id": "HEALTH04a",
                      "type": "text",
                      "title": "Medical Condition/Diagnosis",
                      "max": 200,
                      "width":"14%"
                    },
                    {
                      "id": "HEALTH04b",
                      "title": "Year of diagnosis",
                      "type": "picker",
                      "subType": "selectField",
                      "optionsTable": "years",
                      "width":"10%",
                      "options": [
                        {
                          "value": "2017",
                          "title": "2017"
                        },
                        {
                          "value": "2016",
                          "title": "2016"
                        },
                        {
                          "value": "2015",
                          "title": "2015"
                        }
                      ]
                    },
                    {
                      "id": "HEALTH04c",
                      "type": "text",
                      "title": "Type of test done (if any)",
                      "max": 200,
                      "width":"14%"
                    },
                    {
                      "id": "HEALTH04d",
                      "type": "datepicker",
                      "subType":"date",
                      "title": "Date of test done (if any)",
                      "max":0,
                      "min":100,
                      "width":"10%"
                    },
                    {
                      "id": "HEALTH04e",
                      "type": "QRADIOGROUP",
                      "align": "left",
                      "title": "Test result (if any)",
                      "max": 200,
                      "width":"14%",
                      "options": [
                        {
                          "value": "Y",
                          "title": "Normal"
                        },
                        {
                          "value": "N",
                          "title": "Abnormal"
                        }
                      ]
                    },
                    {
                      "id": "HEALTH04f",
                      "type": "text",
                      "title": "Details  (Medication/Treatment / Follow up / Complication) ",
                      "width":"10%",
                      "max": 200
                    },
                    {
                      "id": "HEALTH04g",
                      "type": "text",
                      "title": "Name of Doctor",
                      "width":"14%",
                      "max": 200
                    },
                    {
                      "id": "HEALTH04h",
                      "type": "text",
                      "title": "Address of Hospital/Clinic",
                      "width":"14%",
                      "max": 200
                    }
                  ]
                },
                {
                  "id": "HEALTH05",
                  "type": "QRADIOGROUP",
                  "horizontal": true,
                  "align": "left",
                  "title": "(d) Joint, limb or bone disease or disorder, auto-immune disease (e.g. systemic lupus erythematosus) or infectious disease?",
                  "valueTrigger": {
                    "type": "resetTargetValue",
                    "id": "insAllNoInd",
                    "value": "Y,N"
                  },
                  "options": [
                    {
                      "value": "Y",
                      "title": "Yes"
                    },
                    {
                      "value": "N",
                      "title": "No"
                    }
                  ]
                },
               {
                  "type": "table",
                  "trigger": {
                    "id": "HEALTH05",
                    "type": "showIfEqual",
                    "value": "Y"
                  },
                  "allowEdit": true,
                  "hasBorder": true,
                  "items": [
                    {
                      "id": "HEALTH05a",
                      "type": "text",
                      "title": "Medical Condition/Diagnosis",
                      "max": 200,
                      "width":"14%"
                    },
                    {
                      "id": "HEALTH05b",
                      "title": "Year of diagnosis",
                      "type": "picker",
                      "subType": "selectField",
                      "optionsTable": "years",
                      "width":"10%",
                      "options": [
                        {
                          "value": "2017",
                          "title": "2017"
                        },
                        {
                          "value": "2016",
                          "title": "2016"
                        },
                        {
                          "value": "2015",
                          "title": "2015"
                        }
                      ]
                    },
                    {
                      "id": "HEALTH05c",
                      "type": "text",
                      "title": "Type of test done (if any)",
                      "max": 200,
                      "width":"14%"
                    },
                    {
                      "id": "HEALTH05d",
                      "type": "datepicker",
                      "subType":"date",
                      "title": "Date of test done (if any)",
                      "max":0,
                      "min":100,
                      "width":"10%"
                    },
                    {
                      "id": "HEALTH05e",
                      "type": "QRADIOGROUP",
                      "align": "left",
                      "title": "Test result (if any)",
                      "max": 200,
                      "width":"14%",
                      "options": [
                        {
                          "value": "Y",
                          "title": "Normal"
                        },
                        {
                          "value": "N",
                          "title": "Abnormal"
                        }
                      ]
                    },
                    {
                      "id": "HEALTH05f",
                      "type": "text",
                      "title": "Details  (Medication/Treatment / Follow up / Complication) ",
                      "width":"10%",
                      "max": 200
                    },
                    {
                      "id": "HEALTH05g",
                      "type": "text",
                      "title": "Name of Doctor",
                      "width":"14%",
                      "max": 200
                    },
                    {
                      "id": "HEALTH05h",
                      "type": "text",
                      "title": "Address of Hospital/Clinic",
                      "width":"14%",
                      "max": 200
                    }
                  ]
                },
                {
                  "id": "HEALTH06",
                  "type": "QRADIOGROUP",
                  "horizontal": true,
                  "align": "left",
                  "title": "(e) Hepatitis B or C, HIV infection, tuberculosis, alcohol or drug dependency?",
                  "valueTrigger": {
                    "type": "resetTargetValue",
                    "id": "insAllNoInd",
                    "value": "Y,N"
                  },
                  "options": [
                    {
                      "value": "Y",
                      "title": "Yes"
                    },
                    {
                      "value": "N",
                      "title": "No"
                    }
                  ]
                },
                {
                  "type": "table",
                  "trigger": {
                    "id": "HEALTH06",
                    "type": "showIfEqual",
                    "value": "Y"
                  },
                  "allowEdit": true,
                  "hasBorder": true,
                  "items": [
                    {
                      "id": "HEALTH06a",
                      "type": "text",
                      "title": "Medical Condition/Diagnosis",
                      "max": 200,
                      "width":"14%"
                    },
                    {
                      "id": "HEALTH06b",
                      "title": "Year of diagnosis",
                      "type": "picker",
                      "subType": "selectField",
                      "optionsTable": "years",
                      "width":"10%",
                      "options": [
                        {
                          "value": "2017",
                          "title": "2017"
                        },
                        {
                          "value": "2016",
                          "title": "2016"
                        },
                        {
                          "value": "2015",
                          "title": "2015"
                        }
                      ]
                    },
                    {
                      "id": "HEALTH06c",
                      "type": "text",
                      "title": "Type of test done (if any)",
                      "max": 200,
                      "width":"14%"
                    },
                    {
                      "id": "HEALTH06d",
                      "type": "datepicker",
                      "subType":"date",
                      "title": "Date of test done (if any)",
                      "max":0,
                      "min":100,
                      "width":"10%"
                    },
                    {
                      "id": "HEALTH06e",
                      "type": "QRADIOGROUP",
                      "align": "left",
                      "title": "Test result (if any)",
                      "max": 200,
                      "width":"14%",
                      "options": [
                        {
                          "value": "Y",
                          "title": "Normal"
                        },
                        {
                          "value": "N",
                          "title": "Abnormal"
                        }
                      ]
                    },
                    {
                      "id": "HEALTH06f",
                      "type": "text",
                      "title": "Details  (Medication/Treatment / Follow up / Complication) ",
                      "width":"10%",
                      "max": 200
                    },
                    {
                      "id": "HEALTH06g",
                      "type": "text",
                      "title": "Name of Doctor",
                      "width":"14%",
                      "max": 200
                    },
                    {
                      "id": "HEALTH06h",
                      "type": "text",
                      "title": "Address of Hospital/Clinic",
                      "width":"14%",
                      "max": 200
                    }
                  ]
                },
                {
                  "id": "HEALTH07",
                  "type": "QRADIOGROUP",
                  "horizontal": true,
                  "align": "left",
                  "title": "(f) Any other illness, disease, disorder, operation, physical disability or accident not mentioned above?",
                  "valueTrigger": {
                    "type": "resetTargetValue",
                    "id": "insAllNoInd",
                    "value": "Y,N"
                  },
                  "options": [
                    {
                      "value": "Y",
                      "title": "Yes"
                    },
                    {
                      "value": "N",
                      "title": "No"
                    }
                  ]
                },
               {
                  "type": "table",
                  "trigger": {
                    "id": "HEALTH07",
                    "type": "showIfEqual",
                    "value": "Y"
                  },
                  "allowEdit": true,
                  "hasBorder": true,
                  "items": [
                    {
                      "id": "HEALTH07a",
                      "type": "text",
                      "title": "Medical Condition/Diagnosis",
                      "max": 200,
                      "width":"14%"
                    },
                    {
                      "id": "HEALTH07b",
                      "title": "Year of diagnosis",
                      "type": "picker",
                      "subType": "selectField",
                      "optionsTable": "years",
                      "width":"10%",
                      "options": [
                        {
                          "value": "2017",
                          "title": "2017"
                        },
                        {
                          "value": "2016",
                          "title": "2016"
                        },
                        {
                          "value": "2015",
                          "title": "2015"
                        }
                      ]
                    },
                    {
                      "id": "HEALTH07c",
                      "type": "text",
                      "title": "Type of test done (if any)",
                      "max": 200,
                      "width":"14%"
                    },
                    {
                      "id": "HEALTH07d",
                      "type": "datepicker",
                      "subType":"date",
                      "title": "Date of test done (if any)",
                      "max":0,
                      "min":100,
                      "width":"10%"
                    },
                    {
                      "id": "HEALTH07e",
                      "type": "QRADIOGROUP",
                      "align": "left",
                      "title": "Test result (if any)",
                      "max": 200,
                      "width":"14%",
                      "options": [
                        {
                          "value": "Y",
                          "title": "Normal"
                        },
                        {
                          "value": "N",
                          "title": "Abnormal"
                        }
                      ]
                    },
                    {
                      "id": "HEALTH07f",
                      "type": "text",
                      "title": "Details  (Medication/Treatment / Follow up / Complication) ",
                      "width":"10%",
                      "max": 200
                    },
                    {
                      "id": "HEALTH07g",
                      "type": "text",
                      "title": "Name of Doctor",
                      "width":"14%",
                      "max": 200
                    },
                    {
                      "id": "HEALTH07h",
                      "type": "text",
                      "title": "Address of Hospital/Clinic",
                      "width":"14%",
                      "max": 200
                    }
                  ]
                },
                {
                  "id": "HEALTH08",
                  "type": "QRADIOGROUP",
                  "horizontal": true,
                  "align": "left",
                  "title": "2. Are you currently receiving any medical treatment or do you intend seeking or have been advised to seek medical treatment for any health problems or are you waiting the results of any tests/ investigations?",
                  "valueTrigger": {
                    "type": "resetTargetValue",
                    "id": "insAllNoInd",
                    "value": "Y,N"
                  },
                  "options": [
                    {
                      "value": "Y",
                      "title": "Yes"
                    },
                    {
                      "value": "N",
                      "title": "No"
                    }
                  ]
                },
                {
                  "type": "table",
                  "trigger": {
                    "id": "HEALTH08",
                    "type": "showIfEqual",
                    "value": "Y"
                  },
                  "allowEdit": true,
                  "hasBorder": true,
                  "items": [
                    {
                      "id": "HEALTH08a",
                      "type": "text",
                      "title": "Medical Condition/Diagnosis",
                      "max": 200,
                      "width":"14%"
                    },
                    {
                      "id": "HEALTH08b",
                      "title": "Year of diagnosis",
                      "type": "picker",
                      "subType": "selectField",
                      "optionsTable": "years",
                      "width":"10%",
                      "options": [
                        {
                          "value": "2017",
                          "title": "2017"
                        },
                        {
                          "value": "2016",
                          "title": "2016"
                        },
                        {
                          "value": "2015",
                          "title": "2015"
                        }
                      ]
                    },
                    {
                      "id": "HEALTH08c",
                      "type": "text",
                      "title": "Type of test done (if any)",
                      "max": 200,
                      "width":"14%"
                    },
                    {
                      "id": "HEALTH08d",
                      "type": "datepicker",
                      "subType":"date",
                      "title": "Date of test done (if any)",
                      "max":0,
                      "min":100,
                      "width":"10%"
                    },
                    {
                      "id": "HEALTH08e",
                      "type": "QRADIOGROUP",
                      "align": "left",
                      "title": "Test result (if any)",
                      "max": 200,
                      "width":"14%",
                      "options": [
                        {
                          "value": "Y",
                          "title": "Normal"
                        },
                        {
                          "value": "N",
                          "title": "Abnormal"
                        }
                      ]
                    },
                    {
                      "id": "HEALTH08f",
                      "type": "text",
                      "title": "Details  (Medication/Treatment / Follow up / Complication) ",
                      "width":"10%",
                      "max": 200
                    },
                    {
                      "id": "HEALTH08g",
                      "type": "text",
                      "title": "Name of Doctor",
                      "width":"14%",
                      "max": 200
                    },
                    {
                      "id": "HEALTH08h",
                      "type": "text",
                      "title": "Address of Hospital/Clinic",
                      "width":"14%",
                      "max": 200
                    }
                  ]
                },
                {
                  "id": "HEALTH09",
                  "type": "QRADIOGROUP",
                  "horizontal": true,
                  "align": "left",
                  "title": "3. Apart from condition listed above, have you ever seen a doctor or other health professional, or been prescribed medication for any other condition which has lasted for more than (apart from usual flu and colds) 5 days?",
                  "valueTrigger": {
                    "type": "resetTargetValue",
                    "id": "insAllNoInd",
                    "value": "Y,N"
                  },
                  "options": [
                    {
                      "value": "Y",
                      "title": "Yes"
                    },
                    {
                      "value": "N",
                      "title": "No"
                    }
                  ]
                },
                {
                  "type": "table",
                  "trigger": {
                    "id": "HEALTH09",
                    "type": "showIfEqual",
                    "value": "Y"
                  },
                  "allowEdit": true,
                  "hasBorder": true,
                  "items": [
                    {
                      "id": "HEALTH09a",
                      "type": "text",
                      "title": "Medical Condition/Diagnosis",
                      "max": 200,
                      "width":"14%"
                    },
                    {
                      "id": "HEALTH09b",
                      "title": "Year of diagnosis",
                      "type": "picker",
                      "subType": "selectField",
                      "optionsTable": "years",
                      "width":"10%",
                      "options": [
                        {
                          "value": "2017",
                          "title": "2017"
                        },
                        {
                          "value": "2016",
                          "title": "2016"
                        },
                        {
                          "value": "2015",
                          "title": "2015"
                        }
                      ]
                    },
                    {
                      "id": "HEALTH09c",
                      "type": "text",
                      "title": "Type of test done (if any)",
                      "max": 200,
                      "width":"14%"
                    },
                    {
                      "id": "HEALTH09d",
                      "type": "datepicker",
                      "subType":"date",
                      "title": "Date of test done (if any)",
                      "max":0,
                      "min":100,
                      "width":"10%"
                    },
                    {
                      "id": "HEALTH09e",
                      "type": "QRADIOGROUP",
                      "align": "left",
                      "title": "Test result (if any)",
                      "max": 200,
                      "width":"14%",
                      "options": [
                        {
                          "value": "Y",
                          "title": "Normal"
                        },
                        {
                          "value": "N",
                          "title": "Abnormal"
                        }
                      ]
                    },
                    {
                      "id": "HEALTH09f",
                      "type": "text",
                      "title": "Details  (Medication/Treatment / Follow up / Complication) ",
                      "width":"10%",
                      "max": 200
                    },
                    {
                      "id": "HEALTH09g",
                      "type": "text",
                      "title": "Name of Doctor",
                      "width":"14%",
                      "max": 200
                    },
                    {
                      "id": "HEALTH09h",
                      "type": "text",
                      "title": "Address of Hospital/Clinic",
                      "width":"14%",
                      "max": 200
                    }
                  ]
                },
                {
                  "id": "HEALTH10",
                  "type": "QRADIOGROUP",
                  "horizontal": true,
                  "align": "left",
                  "title": "4. Have you or your spouse been told to have received any medical advice, counseling or treatment in connection with sexually transmitted disease, AIDS, AIDS Related Complex or any other AIDS related condition?",
                  "valueTrigger": {
                    "type": "resetTargetValue",
                    "id": "insAllNoInd",
                    "value": "Y,N"
                  },
                  "options": [
                    {
                      "value": "Y",
                      "title": "Yes"
                    },
                    {
                      "value": "N",
                      "title": "No"
                    }
                  ]
                },
                {
                  "type": "table",
                  "trigger": {
                    "id": "HEALTH10",
                    "type": "showIfEqual",
                    "value": "Y"
                  },
                  "allowEdit": true,
                  "hasBorder": true,
                  "items": [
                    {
                      "id": "HEALTH10a",
                      "type": "text",
                      "title": "Medical Condition/Diagnosis",
                      "max": 200,
                      "width":"14%"
                    },
                    {
                      "id": "HEALTH10b",
                      "title": "Year of diagnosis",
                      "type": "picker",
                      "subType": "selectField",
                      "optionsTable": "years",
                      "width":"10%",
                      "options": [
                        {
                          "value": "2017",
                          "title": "2017"
                        },
                        {
                          "value": "2016",
                          "title": "2016"
                        },
                        {
                          "value": "2015",
                          "title": "2015"
                        }
                      ]
                    },
                    {
                      "id": "HEALTH10c",
                      "type": "text",
                      "title": "Type of test done (if any)",
                      "max": 200,
                      "width":"14%"
                    },
                    {
                      "id": "HEALTH10d",
                      "type": "datepicker",
                      "subType":"date",
                      "title": "Date of test done (if any)",
                      "max":0,
                      "min":100,
                      "width":"10%"
                    },
                    {
                      "id": "HEALTH10e",
                      "type": "QRADIOGROUP",
                      "align": "left",
                      "title": "Test result (if any)",
                      "max": 200,
                      "width":"14%",
                      "options": [
                        {
                          "value": "Y",
                          "title": "Normal"
                        },
                        {
                          "value": "N",
                          "title": "Abnormal"
                        }
                      ]
                    },
                    {
                      "id": "HEALTH10f",
                      "type": "text",
                      "title": "Details  (Medication/Treatment / Follow up / Complication) ",
                      "width":"10%",
                      "max": 200
                    },
                    {
                      "id": "HEALTH10g",
                      "type": "text",
                      "title": "Name of Doctor",
                      "width":"14%",
                      "max": 200
                    },
                    {
                      "id": "HEALTH10h",
                      "type": "text",
                      "title": "Address of Hospital/Clinic",
                      "width":"14%",
                      "max": 200
                    }
                  ]
                },
                {
                  "id": "HEALTH11",
                  "type": "QRADIOGROUP",
                  "horizontal": true,
                  "align": "left",
                  "title": "5. In the PAST FIVE YEARS, have you had any tests done such as X-ray, ultrasound, CT scan, biopsy, electrocardiogram (ECG), blood or urine test? If yes, please provide details in the following table and please submit copy of report (if available).",
                  "valueTrigger": {
                    "type": "resetTargetValue",
                    "id": "insAllNoInd",
                    "value": "Y,N"
                  },
                  "options": [
                    {
                      "value": "Y",
                      "title": "Yes"
                    },
                    {
                      "value": "N",
                      "title": "No"
                    }
                  ]
                },
                {
                  "type": "table",
                  "trigger": {
                    "id": "HEALTH11",
                    "type": "showIfEqual",
                    "value": "Y"
                  },
                  "allowEdit": true,
                  "hasBorder": true,
                  "items": [
                    {
                      "id": "HEALTH11a",
                      "type": "text",
                      "title": "Medical Condition/Diagnosis",
                      "max": 200,
                      "width":"14%"
                    },
                    {
                      "id": "HEALTH11b",
                      "title": "Year of diagnosis",
                      "type": "picker",
                      "subType": "selectField",
                      "optionsTable": "years",
                      "width":"10%",
                      "options": [
                        {
                          "value": "2017",
                          "title": "2017"
                        },
                        {
                          "value": "2016",
                          "title": "2016"
                        },
                        {
                          "value": "2015",
                          "title": "2015"
                        }
                      ]
                    },
                    {
                      "id": "HEALTH11c",
                      "type": "text",
                      "title": "Type of test done (if any)",
                      "max": 200,
                      "width":"14%"
                    },
                    {
                      "id": "HEALTH11d",
                      "type": "datepicker",
                      "subType":"date",
                      "title": "Date of test done (if any)",
                      "max":0,
                      "min":100,
                      "width":"10%"
                    },
                    {
                      "id": "HEALTH11e",
                      "type": "QRADIOGROUP",
                      "align": "left",
                      "title": "Test result (if any)",
                      "max": 200,
                      "width":"14%",
                      "options": [
                        {
                          "value": "Y",
                          "title": "Normal"
                        },
                        {
                          "value": "N",
                          "title": "Abnormal"
                        }
                      ]
                    },
                    {
                      "id": "HEALTH11f",
                      "type": "text",
                      "title": "Details  (Medication/Treatment / Follow up / Complication) ",
                      "width":"10%",
                      "max": 200
                    },
                    {
                      "id": "HEALTH11g",
                      "type": "text",
                      "title": "Name of Doctor",
                      "width":"14%",
                      "max": 200
                    },
                    {
                      "id": "HEALTH11h",
                      "type": "text",
                      "title": "Address of Hospital/Clinic",
                      "width":"14%",
                      "max": 200
                    }
                  ]
                },
                {
                  "type": "qtitle",
                  "id": "HEALTH12_LABEL",
                  "title": "6. For Female Applicants only (For age 10 and above)"
                },
                {
                  "id": "HEALTH12",
                  "type": "QRADIOGROUP",
                  "horizontal": true,
                  "align": "left",
                  "title": "(a) Have you had any breast disease, menstrual disorders, fibroids, cysts or any other disorders of the female reproductive organs, or abnormal pap smear, mammogram, ultrasound or any gynaecological investigations?",
                  "valueTrigger": {
                    "type": "resetTargetValue",
                    "id": "insAllNoInd",
                    "value": "Y,N"
                  },
                  "options": [
                    {
                      "value": "Y",
                      "title": "Yes"
                    },
                    {
                      "value": "N",
                      "title": "No"
                    }
                  ]
                },
                {
                  "type": "table",
                  "trigger": {
                    "id": "HEALTH12",
                    "type": "showIfEqual",
                    "value": "Y"
                  },
                  "allowEdit": true,
                  "hasBorder": true,
                  "items": [
                    {
                      "id": "HEALTH12a",
                      "type": "text",
                      "title": "Medical Condition/Diagnosis",
                      "max": 200,
                      "width":"14%"
                    },
                    {
                      "id": "HEALTH12b",
                      "title": "Year of diagnosis",
                      "type": "picker",
                      "subType": "selectField",
                      "optionsTable": "years",
                      "width":"10%",
                      "options": [
                        {
                          "value": "2017",
                          "title": "2017"
                        },
                        {
                          "value": "2016",
                          "title": "2016"
                        },
                        {
                          "value": "2015",
                          "title": "2015"
                        }
                      ]
                    },
                    {
                      "id": "HEALTH12c",
                      "type": "text",
                      "title": "Type of test done (if any)",
                      "max": 200,
                      "width":"14%"
                    },
                    {
                      "id": "HEALTH12d",
                      "type": "datepicker",
                      "subType":"date",
                      "title": "Date of test done (if any)",
                      "max":0,
                      "min":100,
                      "width":"10%"
                    },
                    {
                      "id": "HEALTH12e",
                      "type": "QRADIOGROUP",
                      "align": "left",
                      "title": "Test result (if any)",
                      "max": 200,
                      "width":"14%",
                      "options": [
                        {
                          "value": "Y",
                          "title": "Normal"
                        },
                        {
                          "value": "N",
                          "title": "Abnormal"
                        }
                      ]
                    },
                    {
                      "id": "HEALTH12f",
                      "type": "text",
                      "title": "Details  (Medication/Treatment / Follow up / Complication) ",
                      "width":"10%",
                      "max": 200
                    },
                    {
                      "id": "HEALTH12g",
                      "type": "text",
                      "title": "Name of Doctor",
                      "width":"14%",
                      "max": 200
                    },
                    {
                      "id": "HEALTH12h",
                      "type": "text",
                      "title": "Address of Hospital/Clinic",
                      "width":"14%",
                      "max": 200
                    }
                  ]
                },
                {
                  "id": "HEALTH13",
                  "type": "QRADIOGROUP",
                  "horizontal": true,
                  "align": "left",
                  "title": "(b) Are you currently pregnant?",
                  "valueTrigger": {
                    "type": "resetTargetValue",
                    "id": "insAllNoInd",
                    "value": "Y,N"
                  },
                  "options": [
                    {
                      "value": "Y",
                      "title": "Yes"
                    },
                    {
                      "value": "N",
                      "title": "No"
                    }
                  ]
                },
                {
                  "type":"block",
                  "trigger": {
                    "id": "HEALTH13",
                    "type": "showIfEqual",
                    "value": "Y"
                  },
                  "items":
                  [
                    {
                      "id": "HEALTH13a",
                      "title":"How many weeks pregnancy now? (Weeks)",
                      "type": "text",
                      "subType": "number",
                      "mandatory":true,
                      "halfColumn":true,
                      "max": 99
                    },
                    {
                      "id": "HEALTH13b",
                      "type": "QRADIOGROUP",
                      "mandatory":true,
                      "horizontal": true,
                      "align": "left",
                      "title": "Any complications during pregnancy such as gestational diabetes, hypertension or any other pregnancy related condition?",
                      "trigger": {
                        "id": "HEALTH13",
                        "type": "showIfEqual",
                        "value": "Y"
                      },
                      "options": [
                        {
                          "value": "Y",
                          "title": "Yes"
                        },
                        {
                          "value": "N",
                          "title": "No"
                        }
                      ]
                    },
                    {
                      "type": "table",
                      "mandatory":true,
                      "id":"HEALTH13b_DATA",
                      "trigger": {
                        "id": "HEALTH13b",
                        "type": "showIfEqual",
                        "value": "Y"
                      },
                      "allowEdit": true,
                      "hasBorder": true,
                      "items": [
                        {
                          "id": "HEALTH13b1",
                          "mandatory":true,
                          "type": "text",
                          "title": "Medical Condition/Diagnosis",
                          "max": 200,
                          "width":"14%"
                        },
                        {
                          "id": "HEALTH13b2",
                          "mandatory":true,
                          "title": "Year of diagnosis",
                          "type": "picker",
                          "subType": "selectField",
                          "optionsTable": "years",
                          "width":"10%",
                          "options": [
                            {
                              "value": "2017",
                              "title": "2017"
                            },
                            {
                              "value": "2016",
                              "title": "2016"
                            },
                            {
                              "value": "2015",
                              "title": "2015"
                            }
                          ]
                        },
                        {
                          "id": "HEALTH13b3",
                          "type": "text",
                          "title": "Type of test done (if any)",
                          "max": 200,
                          "width":"14%"
                        },
                        {
                          "id": "HEALTH13b4",
                          "type": "datepicker",
                          "subType":"date",
                          "title": "Date of test done (if any)",
                          "max":0,
                          "min":100,
                          "width":"10%"
                        },
                        {
                          "id": "HEALTH13b5",
                          "type": "QRADIOGROUP",
                          "align": "left",
                          "title": "Test result (if any)",
                          "max": 200,
                          "width":"14%",
                          "options": [
                            {
                              "value": "Y",
                              "title": "Normal"
                            },
                            {
                              "value": "N",
                              "title": "Abnormal"
                            }
                          ]
                        },
                        {
                          "id": "HEALTH13b6",
                          "mandatory":true,
                          "type": "text",
                          "title": "Details  (Medication/Treatment / Follow up / Complication) ",
                          "width":"10%",
                          "max": 200
                        },
                        {
                          "id": "HEALTH13b7",
                          "type": "text",
                          "title": "Name of Doctor",
                          "width":"14%",
                          "max": 200
                        },
                        {
                          "id": "HEALTH13b8",
                          "type": "text",
                          "title": "Address of Hospital/Clinic",
                          "width":"14%",
                          "max": 200
                        }
                      ]
                    }
                  ]
                }
              ]
            },
            {
              "id": "insAllNoInd",
              "type": "checkbox",
              "disableTrigger": {
                "type": "AnyFieldMatch",
                "id": "HW03,INS01,INS02,LIFESTYLE02,LIFESTYLE03,LIFESTYLE04,LIFESTYLE05,FAMILY01,REG_DR01,HEALTH02,HEALTH03,HEALTH04,HEALTH05,HEALTH06,HEALTH07,HEALTH01,HEALTH08,HEALTH09,HEALTH10,HEALTH11,HEALTH12,HEALTH13",
                "value": "Y"
              },
              "valueTrigger": {
                "type": "resetTargetValue",
                "id": "HW03,INS01,INS02,LIFESTYLE02,LIFESTYLE03,LIFESTYLE04,LIFESTYLE05,FAMILY01,REG_DR01,HEALTH02,HEALTH03,HEALTH04,HEALTH05,HEALTH06,HEALTH07,HEALTH01,HEALTH08,HEALTH09,HEALTH10,HEALTH11,HEALTH12,HEALTH13",
                "value": "Y,N"
              },
              "title": "I confirm the answer to all of the above medical and health questions for proposer is \"no\""
            },
            {
              "type": "paragraph",
              "align": "left",
              "style": {
                "color": "#ec4d33"
              },
              "content": "<p><b>Note: </b>The above declaration does not apply to smoking question, which is autopopulated from Client Profile.</p>  "
            }
          ]
        }
      ]
    }
  ]
}
