{
	"id": "financialEvaluation",
	"type": "layout",
	"items": [{
		"type": "tabs",
		"subType": "OWNER,SPOUSE,DEPENDANTS",
		"filter": "OWNER,SPOUSE,SON,DAU",
		"items": [
			{
				"type": "tab",
				"subType": "OWNER",
				"items": [{
						"id": "netWorth",
						"type": "netWorthChart",
						"title": {
							"en": "My finances (net worth)"
						},
						"hasNum": true,
						"desc": {
							"en": "Your net worth is "
						},
						"validation": {
							"module": "needs",
							"type": "validateNetworth",
							"value": {
								"type": "owner"
							}
						},
						"items": [{
								"id": "assets",
								"type": "gainSection",
								"desc": {
									"en": "ASSETS"
								},
								"items": [{
										"id": "savAcc",
										"title": {
											"en": "Savings Account"
										},
										"type": "text",
										"subType": "currency", "initZero": true,
										"asset": true,
										"max": 9999999999
									},
									{
										"id": "fixDeposit",
										"title": {
											"en": "Fixed Deposits"
										},
										"type": "text",
										"subType": "currency", "initZero": true,
										"asset": true,
										"max": 9999999999
									},
									{
										"id": "invest",
										"title": {
											"en": "Investment(Mutual Fund/Direct investment)"
										},
										"type": "text",
										"subType": "currency", "initZero": true,
										"asset": true,
										"max": 9999999999
									},
									{
										"id": "property",
										"title": {
											"en": "Property"
										},
										"type": "text",
										"subType": "currency", "initZero": true,
										"max": 9999999999
									},
									{
										"id": "car",
										"title": {
											"en": "Car"
										},
										"type": "text",
										"subType": "currency", "initZero": true,
										"max": 9999999999
									},
									{
										"id": "cpfOa",
										"title": {
											"en": "CPF (OA)"
										},
										"type": "text",
										"subType": "currency", "initZero": true,
										"asset": true,
										"max": 9999999999
									},
									{
										"id": "cpfSa",
										"title": {
											"en": "CPF (SA)"
										},
										"type": "text",
										"subType": "currency", "initZero": true,
										"asset": true,
										"max": 9999999999
									},
									{
										"id": "cpfMs",
										"title": {
											"en": "CPF Medisave"
										},
										"type": "text",
										"asset": true,
										"subType": "currency", "initZero": true,
										"max": 9999999999
									},
									{
										"id": "srs",
										"title": {
											"en": "SRS"
										},
										"type": "text",
										"asset": true,
										"subType": "currency", "initZero": true,
										"max": 9999999999
									},
									{
										"id": "otherAsset",
										"isOther": true,
										"type": "text",
										"subType": "currency", "initZero": true,
										"max": 9999999999,
										"otherMax": 30
									}
								]
							},
							{
								"id": "liabilities",
								"type": "lossSection",
								"desc": {
									"en": "LIABILITIES"
								},
								"items": [{
										"id": "mortLoan",
										"title": {
											"en": "Mortgage loan"
										},
										"type": "text",
										"subType": "currency", "initZero": true,
										"max": 9999999999
									}, {
										"id": "motLoan",
										"title": {
											"en": "Motor loan"
										},
										"type": "text",
										"subType": "currency", "initZero": true,
										"max": 9999999999
									},
									{
										"id": "eduLoan",
										"title": {
											"en": "Education loan"
										},
										"type": "text",
										"subType": "currency", "initZero": true,
										"max": 9999999999
									},
									{
										"id": "otherLiabilites",
										"isOther": true,
										"type": "text",
										"subType": "currency", "initZero": true,
										"max": 9999999999,
										"otherMax": 30
									}
								]
							}
						]
					},
					{
						"id": "noALReason",
						"type": "textArea",
						"mandatory": true,
						"title": {
							"en": "You have not indicated any information for Assets. This may impact your analysis."
						},
						"desc": {
							"en": "Please provide reason(s) for not documenting this information."
						},	
						"placeholder": {
							"en": "Please state reason(s)"
						},
						"max": 300,
						"maxLength": 300,
						"trigger": [{
							"id": "assets, liabilities",
							"type": "dynamicCondition",
							"value": "!#1 && !#2"
						}]
					},
					{
						"type": "HIDDEN",
						"validation": {
							"module": "needs",
							"type": "calEiPorfNInsPrem"
						}
					},
					{
						"id": "eiPorfSec",
						"type": "HEADERWITHERROR",
						"hasNum": true,
						"title": {
							"en": "Existing insurance portfolio"
						},
						"hints": {
							"en": "For comprehensive financial planning, you should take into consideration  your existing insurance portfolio. This is to avoid providing excess coverage in the planning. However, if  you do not have any insurance policy or for whatever reason, not providing the information, please state the  reason for not providing the information."
						},
						"validation": {
							"module": "needs",
							"type": "validateEiPorf"
						}
					},
					{
						"id": "lifeInsProt",
						"title": {
							"en": "Life Insurance Protection (Death Benefit)"
						},
						"type": "text",
						"subType": "currency", "initZero": true,
						"max": 9999999999,
						"Horizontal": true
					},
					{
						"id": "retirePol",
						"title": {
							"en": "Retirement Policy (Maturity Value)"
						},
						"type": "text",
						"subType": "currency", "initZero": true,
						"max": 9999999999,
						"Horizontal": true
					},
					{
						"id": "ednowSavPol",
						"title": {
							"en": "Endowment Policy (Estimated Maturity Value)"
						},
						"type": "text",
						"subType": "currency", "initZero": true,
						"max": 9999999999,
						"Horizontal": true
					},
					{
						"id": "eduFund",
						"title": {
							"en": "Education Fund (Maturity Value)"
						},
						"type": "text",
						"subType": "currency", "initZero": true,
						"max": 9999999999,
						"Horizontal": true
					},
					{
						"id": "invLinkPol",
						"title": {
							"en": "Investment-Linked Policies (Death Benefit)"
						},
						"type": "text",
						"subType": "currency", "initZero": true,
						"max": 9999999999,
						"Horizontal": true
					},
					{
						"id": "disIncomeProt",
						"title": {
							"en": "Disability Income Protection (DI)"
						},
						"type": "text",
						"subType": "currency", "initZero": true,
						"max": 9999999999,
						"Horizontal": true
					},
					{
						"id": "ciPort",
						"title": {
							"en": "Critical illness Protection (CI)"
						},
						"type": "text",
						"subType": "currency", "initZero": true,
						"max": 9999999999,
						"Horizontal": true
					},
					{
						"id": "personAcc",
						"title": {
							"en": "Personal Accident (PA)"
						},
						"type": "text",
						"subType": "currency", "initZero": true,
						"max": 9999999999,
						"Horizontal": true
					},
					{
						"id": "hospNSurg",
						"title": {
							"en": "Hospital & Surgical (H&S)"
						},
						"type": "text",
						"max": 50,
						"Horizontal": true
					},
					{
						"id": "insPremSec",
						"type": "HEADERWITHERROR",
						"title": {
							"en": "Insurance Premiums"
						},
						"validation": {
							"module": "needs",
							"type": "validateInsPrem"
						}
					},
					{
						"type": "twoSection",
						"items": [{
							"type": "leftSection",
							"header": {
								"en": "Annual Insurance Premiums"
							},
							"height": "219px",
							"items": [
								[{
										"id": "pAInsPrem",
										"title": {
											"en": "Proposer"
										},
										"type": "text",
										"subType": "currency", "initZero": true,
										"max": 9999999999,
										"Horizontal": true,
										"onChange": {
											"module": "needs",
											"type": "onAInsPremChange",
											"value": {
												"type": "owner"
											}
										}
									},
									{
										"id": "sAInsPrem",
										"title": {
											"en": "Spouse"
										},
										"type": "text",
										"subType": "currency", "initZero": true,
										"max": 9999999999,
										"trigger": {
											"id": "@profile.marital",
											"type": "showIfContains",
											"value": "M"
										},
										"Horizontal": true,
										"onChange": {
											"module": "needs",
											"type": "onAInsPremChange",
											"value": {
												"type": "spouse"
											}
										}
									},
									{
										"id": "oAInsPrem",
										"title": {
											"en": "Others"
										},
										"type": "text",
										"subType": "currency", "initZero": true,
										"max": 9999999999,
										"Horizontal": true,
										"onChange": {
											"module": "needs",
											"type": "onAInsPremChange"
										}
									}
								]
							]
						}, {
							"type": "rightSection",
							"height": "280px",
							"items": [
								[{
										"id": "caInsPrem",
										"title": {
											"en": "Single Premiums (Cash)"
										},
										"type": "text",
										"subType": "currency", "initZero": true,
										"max": 9999999999,
										"Horizontal": true
									},
									{
										"id": "csInsPrem",
										"title": {
											"en": "Single Premiums (CPF/SRS)"
										},
										"type": "text",
										"subType": "currency", "initZero": true,
										"max": 9999999999,
										"Horizontal": true
									},
									{
										"id": "mdInsPrem",
										"title": {
											"en": "Premiums (Medisave)"
										},
										"type": "text",
										"subType": "currency", "initZero": true,
										"max": 9999999999,
										"Horizontal": true
									},
									{
										"id": "fpInsPrem",
										"title": {
											"en": "Limited Pay Premiums (fully paid)"
										},
										"type": "text",
										"subType": "currency", "initZero": true,
										"max": 9999999999,
										"Horizontal": true
									}
								]
							]
						}]
					},
					{
						"id": "noEIReason",
						"type": "textArea",
						"mandatory": true,
						"title": {
							"en": "You have not indicated any information for your Existing Insurance Portfolio."
						},
						"desc": {
							"en": "This may impact your analysis. Please provide reason(s) for not documenting this information. "
						},
						"placeholder": {
							"en": "Please state reason(s)"
						},
						"max": 300,
						"maxLength": 300,
						"trigger": [{
							"id": "eiPorf,hospNSurg,aInsPrem,sInsPrem",
							"type": "dynamicCondition",
							"value": "!#1 && !#2 && !#3 && !#4"
						}]
					},
					{
						"type": "twoSection",
						"hasNum": true,
						"validation": {
							"module": "needs",
							"type": "validateCashFlow",
							"value": {
								"type": "owner"
							}
						},
						"title": {
							"en": "My finances(Cash Flow)"
						},
						"items": [{
								"id": "mDisposeIncome",
								"type": "showValues",
								"title": {
									"en": "Monthly Disposable Income"
								}
							},
							{
								"id": "aDisposeIncome",
								"type": "showValues",
								"title": {
									"en": "Annual Disposable Income (including Bonus)"
								}
							},
							{
								"id": "totAIncome",
								"type": "leftSection",
								"height": "430px",
								"title": {
									"en": "Total Annual Income"
								},
								"color": "green",
								"header": {
									"en": "Monthly Income"
								},
								"items": [
									[{
											"id": "mIncome",
											"type": "showValue",
											"title": {
												"en": "Monthly Income Or cash allowance"
											},
											"disabled": true,
											"color": "green"
										},
										{
											"id": "lessMCPF",
											"type": "text",
											"subType": "currency", "initZero": true,
											"title": {
												"en": "Less Monthly CPF"
											},
											"Horizontal": true,
											"max": 9999999999
										}
									],
									[{
										"id": "netMIcncome",
										"type": "showValue",
										"fontWeight": "bold",
										"disabled": true,
										"title": {
											"en": "Net Monthly Income"
										},
										"color": "green"
									}],
									[{
										"id": "aBonus",
										"type": "text",
										"subType": "currency", "initZero": true,
										"Horizontal": true,
										"title": {
											"en": "Annual Bonus / Additional Income"
										},
										"max": 9999999999,
										"color": "green"
									}]
								]
							},
							{
								"id": "totAExpense",
								"type": "rightSection",
								"height": "430px",
								"title": {
									"en": "Total Annual Expenses"
								},
								"color": "red",
								"header": {
									"en": "Monthly Expenses"
								},
								"items": [
									[{
											"id": "personExpenses",
											"type": "text",
											"subType": "currency", "initZero": true,
											"Horizontal": true,
											"title": {
												"en": "Personal expenses"
											},
											"max": 9999999999
										},
										{
											"id": "householdExpenses",
											"type": "text",
											"subType": "currency", "initZero": true,
											"Horizontal": true,
											"title": {
												"en": "Household expenses"
											},
											"max": 9999999999
										},
										{
											"id": "insurancePrem",
											"type": "showValue",
											"title": {
												"en": "Insurance premiums"
											},
											"hints": {
												"en": "This expense includes any insurance premium paid by you for yourself/spouse/children."
											},
											"decimalNeeded": 2,
											"disabled": true,
											"relationship": "OWNER",
											"color": "red"
										},
										{
											"id": "regSav",
											"type": "text",
											"subType": "currency", "initZero": true,
											"Horizontal": true,
											"title": {
												"en": "Regular savings"
											},
											"max": 9999999999
										},
										{
											"id": "otherExpense",
											"type": "text",
											"subType": "currency", "initZero": true,
											"Horizontal": true,
											"isOther": true,
											"title": {
												"en": "Other: Please justify"
											},
											"max": 9999999999,
											"otherMax": 30
										}
									],
									[{
										"id": "totMExpense",
										"type": "showValue",
										"subType": "bold",
										"title": {
											"en": "Total Monthly Expenses"
										},
										"decimalNeeded": 2,
										"disabled": true,
										"color": "red"
									}]
								]
							}
						]
					},
					{
						"id": "noCFReason",
						"type": "textArea",
						"mandatory": true,
						"title": {
							"en": "You have not indicated any information for your Cash Flow - Income(s)/Expense(s)"
						},
						"placeholder": {
							"en": "Please state reason(s)"
						},
						"max": 300,
						"maxLength": 300,
						"trigger": {
							"id": "mIncome,netMIcncome,aBonus,personExpenses,householdExpenses,insurancePrem,regSav,otherExpense",
							"type": "dynamicCondition",
							"value": "(!#1 && !#2 && !#3) || (!#4 && !#5 && !#6 && !#7 && !#8)"
						}
					},
					{
						"id": "additionComment",
						"type": "textArea",
						"title": {
							"en": "Any additional comments"
						},
						"placeholder": {
							"en": "Additional comments"
						},
						"max": 300,
						"maxLength": 300,
						"rows": 2
					},
					{
						"type": "HEADERONLY",
						"title": {
							"en": "My Budget (Annual disposable income committed for Regular Premium Budget)"
						},
						"hasNum": true
					},
					{
						"id": "aRegPremBudget",
						"type": "text",
						"subType": "currency", "initZero": true,
						"min": 0,
						"max": 9999999999,
						"interval": 500000,
						"align": "center",
						"validation": {
							"module": "needs",
							"type": "validateBudget"
						}
					},
					{
						"type": "BLOCK",
						"trigger": {
							"id": "aRegPremBudget",
							"type": "dynamicCondition",
							"value": "#1"
						},
						"items": [{
								"id": "aRegPremBudgetSrc",
								"type": "text",
								"title": {
									"en": "My Budget (Regular Premium Budget - Source of Funds)"
								},
								"placeholder": {
									"en": "Source of Funds"
								},
								"align": "center",
								"mandatory": true,
								"max": 30
							},
							{
								"id": "confirmBudget",
								"type": "textSelection",
								"isSingleSelect": true,
								"align": "center",
								"multiLineTitle": true,
								"title": {
									"en": "Does the budget for Regular Premium form a substantial portion of your Cash flow surplus? <> (Budget is considered substantial if it is more than 50% of surplus)"
								},
								"options": [{
										"title": {
											"en": "Yes, PLEASE JUSTIFY"
										},
										"value": "Y"
									},
									{
										"title": {
											"en": "NO"
										},
										"value": "N"
									}
								],
								"validation": {
									"module": "needs",
									"type": "validateRpConfirm"
								}
							},
							{
								"id": "confirmBudgetReason",
								"type": "textArea",
								"placeholder": {
									"en": "Please state reason(s)"
								},
								"maxLength": 300,
								"mandatory": true,
								"trigger": {
									"id": "confirmBudget",
									"type": "dynamicCondition",
									"value": "#1 && #1 === 'Y'"
								}
							}
						]
					},
					{
						"type": "HEADERONLY",
						"title": {
							"en": "My Budget (Single Premium)"
						},
						"hasNum": true
					},
					{
						"id": "singPrem",
						"type": "text",
						"subType": "currency", "initZero": true,
						"min": 0,
						"max": 9999999999,
						"interval": 500000,
						"align": "center",
						"validation": {
							"module": "needs",
							"type": "validateBudget"
						}
					},
					{
						"type": "BLOCK",
						"trigger": {
							"id": "singPrem",
							"type": "dynamicCondition",
							"value": "#1"
						},
						"items": [{
								"id": "singPremSrc",
								"type": "text",
								"title": {
									"en": "My Budget (Single Premium - Source of Funds)"
								},
								"placeholder": {
									"en": "Source of Funds"
								},
								"max": 30,
								"align": "center",
								"mandatory": true
							},
							{
								"id": "confirmSingPremBudget",
								"type": "textSelection",
								"isSingleSelect": true,
								"align": "center",
								"multiLineTitle": true,
								"title": {
									"en": "Does the budget for Single Premium form a substantial portion of your assets (including Savings, fixed deposit(s) and investments)? <> (Budget is considered substantial if it is more than 50% of assets.)"
								},
								"options": [{
										"title": {
											"en": "Yes, PLEASE JUSTIFY"
										},
										"value": "Y"
									},
									{
										"title": {
											"en": "NO"
										},
										"value": "N"
									}
								],
								"validation": {
									"module": "needs",
									"type": "validateSpConfirm"
								}
							},
							{
								"id": "confirmSingPremBudgetReason",
								"type": "textArea",
								"placeholder": {
									"en": "Please state reason(s)"
								},
								"trigger": [{
									"id": "confirmSingPremBudget",
									"type": "showIfContains",
									"value": "Y"
								}],
								"maxLength": 300,
								"mandatory": true
							}
						]
					},
					{
						"type": "HEADERONLY",
						"title": {
							"en": "My Budget - CPF(OA)"
						},
						"hasNum": true
					},
					{
						"id": "cpfOaBudget",
						"type": "text",
						"subType": "currency", 
						"initZero": true,
						"validation": {
							"module": "needs",
							"type": "validateBudget"
						},
						"min": 0,
						"align": "center",
						"max": 9999999999,
						"interval": 500000
					},
					{
						"type": "HEADERONLY",
						"title": {
							"en": "My Budget - CPF(SA)"
						},
						"hasNum": true
					},
					{
						"id": "cpfSaBudget",
						"type": "text",
						"align": "center",
						"subType": "currency", "initZero": true,
						"validation": {
							"module": "needs",
							"type": "validateBudget"
						},
						"min": 0,
						"max": 9999999999,
						"interval": 500000
					},
					{
						"type": "HEADERONLY",
						"title": {
							"en": "My Budget - CPF Medisave"
						},
						"hasNum": true
					},
					{
						"id": "cpfMsBudget",
						"type": "text",
						"align": "center",
						"subType": "currency", 
						"initZero": true,
						"validation": {
							"module": "needs",
							"type": "validateBudget"
						},
						"min": 0,
						"max": 9999999999,
						"interval": 500000
					},
					{
						"type": "HEADERONLY",
						"title": {
							"en": "My Budget - SRS"
						},
						"hasNum": true
					},
					{
						"id": "srsBudget",
						"type": "text",
						"align": "center",
						"subType": "currency", 
						"initZero": true,
						"validation": {
							"module": "needs",
							"type": "validateBudget"
						},
						"min": 0,
						"max": 9999999999,
						"interval": 500000
					},
					{
						"id": "forceIncome",
						"type": "textSelection",
						"isSingleSelect": true,
						"hasNum": true,
						"mandatory": true,
						"align": "center",
						"multiLineTitle": true,
						"title": {
							"en": "Please confirm if you have any plans or foresee any significant increase or decrease in your current income or expenses within next 12 months? <> (Such as getting an inheritance or loan for property, marriage, expecting a child, salary increment etc.?)"
						},
						"hints": {
							"en": "If you expect an increase in your expenses, please ensure that this is taken into consideration before you provide your budget for this insurance planning. Please ensure that the budget to be committed will be sustainable for the duration of the policy premium term."
						},
						"options": [{
								"title": {
									"en": "Yes, PLEASE JUSTIFY"
								},
								"value": "Y"
							},
							{
								"title": {
									"en": "NO"
								},
								"value": "N"
							}
						]
					},
					{
						"id": "forceIncomeReason",
						"type": "textArea",
						"placeholder": {
							"en": "Please state reason(s)"
						},
						"max": 300,
						"maxLength": 300,
						"mandatory": true,
						"desc": {
							"en": "Please justify the change and confirm that your given budget has catered for the change:"
						},
						"trigger": [{
							"id": "forceIncome",
							"type": "showIfContains",
							"value": "Y"
						}]
					}
				]
			},
			{
				"type": "tab",
				"subType": "SPOUSE",
				"items": [{
					"id": "netWorth",
					"type": "netWorthChart",
					"title": {
						"en": "My finances (net worth)"
					},
					"hasNum": true,
					"desc": {
						"en": "Your net worth is "
					},
					"validation": {
						"module": "needs",
						"type": "validateNetworth",
						"value": {
							"type": "spouse"
						}
					},
					"items": [{
							"id": "assets",
							"type": "gainSection",
							"desc": {
								"en": "ASSETS"
							},
							"items": [{
									"id": "savAcc",
									"title": {
										"en": "Savings Account"
									},
									"type": "text",
									"subType": "currency", "initZero": true,
									"asset": true,
									"max": 9999999999
								},
								{
									"id": "fixDeposit",
									"title": {
										"en": "Fixed Deposits"
									},
									"type": "text",
									"subType": "currency", "initZero": true,
									"asset": true,
									"max": 9999999999
								},
								{
									"id": "invest",
									"title": {
										"en": "Investment(Mutual Fund/Direct investment)"
									},
									"type": "text",
									"subType": "currency", "initZero": true,
									"asset": true,
									"max": 9999999999
								},
								{
									"id": "property",
									"title": {
										"en": "Property"
									},
									"type": "text",
									"subType": "currency", "initZero": true,
									"max": 9999999999
								},
								{
									"id": "car",
									"title": {
										"en": "Car"
									},
									"type": "text",
									"subType": "currency", "initZero": true,
									"max": 9999999999
								},
								{
									"id": "cpfOa",
									"title": {
										"en": "CPF (OA)"
									},
									"type": "text",
									"subType": "currency", "initZero": true,
									"asset": true,
									"max": 9999999999
								},
								{
									"id": "cpfSa",
									"title": {
										"en": "CPF (SA)"
									},
									"type": "text",
									"subType": "currency", "initZero": true,
									"asset": true,
									"max": 9999999999
								},
								{
									"id": "cpfMs",
									"title": {
										"en": "CPF Medisave"
									},
									"type": "text",
									"asset": true,
									"subType": "currency", "initZero": true,
									"max": 9999999999
								},
								{
									"id": "srs",
									"title": {
										"en": "SRS"
									},
									"type": "text",
									"asset": true,
									"subType": "currency", "initZero": true,
									"max": 9999999999
								},
								{
									"id": "otherAsset",
									"isOther": true,
									"type": "text",
									"subType": "currency", "initZero": true,
									"max": 9999999999,
									"otherMax": 30
								}
							]
						},
						{
							"id": "liabilities",
							"type": "lossSection",
							"desc": {
								"en": "LIABILITIES"
							},
							"items": [{
									"id": "mortLoan",
									"title": {
										"en": "Mortgage loan"
									},
									"type": "text",
									"subType": "currency", "initZero": true,
									"max": 9999999999
								}, {
									"id": "motLoan",
									"title": {
										"en": "Motor loan"
									},
									"type": "text",
									"subType": "currency", "initZero": true,
									"max": 9999999999
								},
								{
									"id": "eduLoan",
									"title": {
										"en": "Education loan"
									},
									"type": "text",
									"subType": "currency", "initZero": true,
									"max": 9999999999
								},
								{
									"id": "otherLiabilites",
									"isOther": true,
									"type": "text",
									"subType": "currency", "initZero": true,
									"max": 9999999999,
									"otherMax": 30
								}
							]
						}]
					},
					{
						"id": "eiporfNainsprem",
						"type": "HIDDEN",
						"validation": {
							"module": "needs",
							"type": "calEiPorfNInsPrem"
						}
					},
					{
						"id": "eiPorfSec",
						"type": "HEADERWITHERROR",
						"hasNum": true,
						"title": {
							"en": "Existing insurance portfolio"
						},
						"hints": {
							"en": "For comprehensive financial planning, you should take into consideration  your existing insurance portfolio. This is to avoid providing excess coverage in the planning. However, if  you do not have any insurance policy or for whatever reason, not providing the information, please state the  reason for not providing the information."
						},
						"validation": {
							"module": "needs",
							"type": "validateEiPorf"
						}
					},
					{
						"id": "lifeInsProt",
						"title": {
							"en": "Life Insurance Protection (Death Benefit)"
						},
						"type": "text",
						"subType": "currency", "initZero": true,
						"max": 9999999999,
						"Horizontal": true
					},
					{
						"id": "retirePol",
						"title": {
							"en": "Retirement Policy (Maturity Value)"
						},
						"type": "text",
						"subType": "currency", "initZero": true,
						"max": 9999999999,
						"Horizontal": true
					},
					{
						"id": "ednowSavPol",
						"title": {
							"en": "Endowment Policy (Estimated Maturity Value)"
						},
						"type": "text",
						"subType": "currency", "initZero": true,
						"max": 9999999999,
						"Horizontal": true
					},
					{
						"id": "eduFund",
						"title": {
							"en": "Education Fund (Maturity Value)"
						},
						"type": "text",
						"subType": "currency", "initZero": true,
						"max": 9999999999,
						"Horizontal": true
					},
					{
						"id": "invLinkPol",
						"title": {
							"en": "Investment-Linked Policies (Death Benefit)"
						},
						"type": "text",
						"subType": "currency", "initZero": true,
						"max": 9999999999,
						"Horizontal": true
					},
					{
						"id": "disIncomeProt",
						"title": {
							"en": "Disability Income Protection (DI)"
						},
						"type": "text",
						"subType": "currency", "initZero": true,
						"max": 9999999999,
						"Horizontal": true
					},
					{
						"id": "ciPort",
						"title": {
							"en": "Critical illness Protection (CI)"
						},
						"type": "text",
						"subType": "currency", "initZero": true,
						"max": 9999999999,
						"Horizontal": true
					},
					{
						"id": "personAcc",
						"title": {
							"en": "Personal Accident (PA)"
						},
						"type": "text",
						"subType": "currency", "initZero": true,
						"max": 9999999999,
						"Horizontal": true
					},
					{
						"id": "hospNSurg",
						"title": {
							"en": "Hospital & Surgical (H&S)"
						},
						"type": "text",
						"max": 50,
						"Horizontal": true
					},
					{
						"id": "insPremSec",
						"type": "HEADERWITHERROR",
						"title": {
							"en": "Insurance Premiums"
						},
						"validation": {
							"module": "needs",
							"type": "validateInsPrem"
						}
					},
					{
						"type": "twoSection",
						"items": [{
							"type": "leftSection",
							"header": {
								"en": "Annual Insurance Premiums"
							},
							"height": "219px",
							"items": [
								[{
										"id": "pAInsPrem",
										"title": {
											"en": "Proposer"
										},
										"type": "text",
										"subType": "currency", "initZero": true,
										"max": 9999999999,
										"Horizontal": true,
										"onChange": {
											"module": "needs",
											"type": "onAInsPremChange",
											"value": {
												"type": "owner"
											}
										}
									},
									{
										"id": "sAInsPrem",
										"title": {
											"en": "Spouse"
										},
										"type": "text",
										"subType": "currency", "initZero": true,
										"max": 9999999999,
										"trigger": {
											"id": "@profile.marital",
											"type": "showIfContains",
											"value": "M"
										},
										"Horizontal": true,
										"onChange": {
											"module": "needs",
											"type": "onAInsPremChange",
											"value": {
												"type": "spouse"
											}
										}
									},
									{
										"id": "oAInsPrem",
										"title": {
											"en": "Others"
										},
										"type": "text",
										"subType": "currency", "initZero": true,
										"max": 9999999999,
										"Horizontal": true,
										"onChange": {
											"module": "needs",
											"type": "onAInsPremChange"
										}
									}
								]
							]
						}, {
							"type": "rightSection",
							"height": "280px",
							"items": [
								[{
										"id": "caInsPrem",
										"title": {
											"en": "Single Premiums (Cash)"
										},
										"type": "text",
										"subType": "currency", "initZero": true,
										"max": 9999999999,
										"Horizontal": true
									},
									{
										"id": "csInsPrem",
										"title": {
											"en": "Single Premiums (CPF/SRS)"
										},
										"type": "text",
										"subType": "currency", "initZero": true,
										"max": 9999999999,
										"Horizontal": true
									},
									{
										"id": "mdInsPrem",
										"title": {
											"en": "Premiums (Medisave)"
										},
										"type": "text",
										"subType": "currency", "initZero": true,
										"max": 9999999999,
										"Horizontal": true
									},
									{
										"id": "fpInsPrem",
										"title": {
											"en": "Limited Pay Premiums (fully paid)"
										},
										"type": "text",
										"subType": "currency", "initZero": true,
										"max": 9999999999,
										"Horizontal": true
									}
								]
							]
						}]
					},
					{
						"type": "twoSection",
						"hasNum": true,
						"validation": {
							"module": "needs",
							"type": "validateCashFlow",
							"value": {
								"type": "spouse"
							}
						},
						"title": {
							"en": "My finances(Cash Flow)"
						},
						"items": [{
								"id": "mDisposeIncome",
								"type": "showValues",
								"title": {
									"en": "Monthly Disposable Income"
								}
							},
							{
								"id": "aDisposeIncome",
								"type": "showValues",
								"title": {
									"en": "Annual Disposable Income (including Bonus)"
								}
							},
							{
								"id": "totAIncome",
								"type": "leftSection",
								"height": "430px",
								"title": {
									"en": "Total Annual Income"
								},
								"color": "green",
								"header": {
									"en": "Monthly Income"
								},
								"items": [
									[{
											"id": "mIncome",
											"type": "showValue",
											"title": {
												"en": "Monthly Income Or cash allowance"
											},
											"disabled": true,
											"color": "green"
										},
										{
											"id": "lessMCPF",
											"type": "text",
											"subType": "currency", "initZero": true,
											"title": {
												"en": "Less Monthly CPF"
											},
											"Horizontal": true,
											"max": 9999999999
										}
									],
									[{
										"id": "netMIcncome",
										"type": "showValue",
										"fontWeight": "bold",
										"disabled": true,
										"title": {
											"en": "Net Monthly Income"
										},
										"color": "green"
									}],
									[{
										"id": "aBonus",
										"type": "text",
										"subType": "currency", "initZero": true,
										"Horizontal": true,
										"title": {
											"en": "Annual Bonus / Additional Income"
										},
										"max": 9999999999,
										"color": "green"
									}]
								]
							},
							{
								"id": "totAExpense",
								"type": "rightSection",
								"height": "430px",
								"title": {
									"en": "Total Annual Expenses"
								},
								"color": "red",
								"header": {
									"en": "Monthly Expenses"
								},
								"items": [
									[{
											"id": "personExpenses",
											"type": "text",
											"subType": "currency", "initZero": true,
											"Horizontal": true,
											"title": {
												"en": "Personal expenses"
											},
											"max": 9999999999
										},
										{
											"id": "householdExpenses",
											"type": "text",
											"subType": "currency", "initZero": true,
											"Horizontal": true,
											"title": {
												"en": "Household expenses"
											},
											"max": 9999999999
										},
										{
											"id": "insurancePrem",
											"type": "showValue",
											"title": {
												"en": "Insurance premiums"
											},
											"hints": {
												"en": "This expense includes any insurance premium paid by you for yourself/spouse/children."
											},
											"decimalNeeded": 2,
											"disabled": true,
											"relationship": "OWNER",
											"color": "red"
										},
										{
											"id": "regSav",
											"type": "text",
											"subType": "currency", "initZero": true,
											"Horizontal": true,
											"title": {
												"en": "Regular savings"
											},
											"max": 9999999999
										},
										{
											"id": "otherExpense",
											"type": "text",
											"subType": "currency", "initZero": true,
											"Horizontal": true,
											"isOther": true,
											"title": {
												"en": "Other: Please justify"
											},
											"max": 9999999999,
											"otherMax": 30
										}
									],
									[{
										"id": "totMExpense",
										"type": "showValue",
										"subType": "bold",
										"title": {
											"en": "Total Monthly Expenses"
										},
										"decimalNeeded": 2,
										"disabled": true,
										"color": "red"
									}]
								]
							}
						]
					}
				]
			},
			{
				"type": "tab",
				"subType": "DEPENDANTS",
				"items": [{
						"type": "HIDDEN",
						"validation": {
							"module": "needs",
							"type": "calEiPorfNInsPrem"
						}
					},
					{
						"id": "eiPorfSec",
						"type": "HEADERWITHERROR",
						"hasNum": true,
						"title": {
							"en": "Existing insurance portfolio"
						},
						"hints": {
							"en": "For comprehensive financial planning, you should take into consideration  your existing insurance portfolio. This is to avoid providing excess coverage in the planning. However, if  you do not have any insurance policy or for whatever reason, not providing the information, please state the  reason for not providing the information."
						},
						"validation": {
							"module": "needs",
							"type": "validateEiPorf"
						}
					},
					{
						"id": "lifeInsProt",
						"title": {
							"en": "Life Insurance Protection (Death Benefit)"
						},
						"type": "text",
						"subType": "currency", "initZero": true,
						"max": 9999999999,
						"Horizontal": true
					},
					{
						"id": "retirePol",
						"title": {
							"en": "Retirement Policy (Maturity Value)"
						},
						"type": "text",
						"subType": "currency", "initZero": true,
						"max": 9999999999,
						"Horizontal": true
					},
					{
						"id": "ednowSavPol",
						"title": {
							"en": "Endowment Policy (Estimated Maturity Value)"
						},
						"type": "text",
						"subType": "currency", "initZero": true,
						"max": 9999999999,
						"Horizontal": true
					},
					{
						"id": "eduFund",
						"title": {
							"en": "Education Fund (Maturity Value)"
						},
						"type": "text",
						"subType": "currency", "initZero": true,
						"max": 9999999999,
						"Horizontal": true
					},
					{
						"id": "invLinkPol",
						"title": {
							"en": "Investment-Linked Policies (Death Benefit)"
						},
						"type": "text",
						"subType": "currency", "initZero": true,
						"max": 9999999999,
						"Horizontal": true
					},
					{
						"id": "disIncomeProt",
						"title": {
							"en": "Disability Income Protection (DI)"
						},
						"type": "text",
						"subType": "currency", "initZero": true,
						"max": 9999999999,
						"Horizontal": true
					},
					{
						"id": "ciPort",
						"title": {
							"en": "Critical illness Protection (CI)"
						},
						"type": "text",
						"subType": "currency", "initZero": true,
						"max": 9999999999,
						"Horizontal": true
					},
					{
						"id": "personAcc",
						"title": {
							"en": "Personal Accident (PA)"
						},
						"type": "text",
						"subType": "currency", "initZero": true,
						"max": 9999999999,
						"Horizontal": true
					},
					{
						"id": "hospNSurg",
						"title": {
							"en": "Hospital & Surgical (H&S)"
						},
						"type": "text",
						"max": 50,
						"Horizontal": true
					},
					{
						"id": "insPremSec",
						"type": "HEADERWITHERROR",
						"title": {
							"en": "Insurance Premiums"
						},
						"validation": {
							"module": "needs",
							"type": "validateInsPrem"
						}
					},
					{
						"type": "twoSection",
						"items": [{
							"type": "leftSection",
							"header": {
								"en": "Annual Insurance Premiums"
							},
							"height": "219px",
							"items": [
								[{
										"id": "pAInsPrem",
										"title": {
											"en": "Proposer"
										},
										"type": "text",
										"subType": "currency", "initZero": true,
										"max": 9999999999,
										"Horizontal": true,
										"onChange": {
											"module": "needs",
											"type": "onAInsPremChange",
											"value": {
												"type": "owner"
											}
										}
									},
									{
										"id": "sAInsPrem",
										"title": {
											"en": "Spouse"
										},
										"type": "text",
										"subType": "currency", "initZero": true,
										"max": 9999999999,
										"trigger": {
											"id": "@profile.marital",
											"type": "showIfContains",
											"value": "M"
										},
										"onChange": {
											"module": "needs",
											"type": "onAInsPremChange",
											"value": {
												"type": "spouse"
											}
										},
										"Horizontal": true
									},
									{
										"id": "oAInsPrem",
										"title": {
											"en": "Others"
										},
										"type": "text",
										"subType": "currency", "initZero": true,
										"max": 9999999999,
										"Horizontal": true,
										"onChange": {
											"module": "needs",
											"type": "onAInsPremChange"
										}
									}
								]
							]
						}, {
							"type": "rightSection",
							"height": "280px",
							"items": [
								[{
										"id": "caInsPrem",
										"title": {
											"en": "Single Premiums (Cash)"
										},
										"type": "text",
										"subType": "currency", "initZero": true,
										"max": 9999999999,
										"Horizontal": true
									},
									{
										"id": "csInsPrem",
										"title": {
											"en": "Single Premiums (CPF/SRS)"
										},
										"type": "text",
										"subType": "currency", "initZero": true,
										"max": 9999999999,
										"Horizontal": true
									},
									{
										"id": "mdInsPrem",
										"title": {
											"en": "Premiums (Medisave)"
										},
										"type": "text",
										"subType": "currency", "initZero": true,
										"max": 9999999999,
										"Horizontal": true
									},
									{
										"id": "fpInsPrem",
										"title": {
											"en": "Limited Pay Premiums (fully paid)"
										},
										"type": "text",
										"subType": "currency", "initZero": true,
										"max": 9999999999,
										"Horizontal": true
									}
								]
							]
						}]
					}
				]
			}
		]
	}]
}