{
	"options": [
		{"title":{"en":"Singaporean"},"value":"N1","category":"A","rlsCode":"SINGAPORE"},
		{"title":{"en":"Chinese"},"value":"N4","category":"B","rlsCode":"CHINA"},
		{"title":{"en":"Philippine, Filipino"},"value":"N119","category":"B","rlsCode":"PHILIPPINES"},
		{"title":{"en":"Indian"},"value":"N76","category":"B","rlsCode":"INDIA"},
		{"title":{"en":"Indonesian"},"value":"N5","category":"B","rlsCode":"INDONESIA"},
		{"title":{"en":"Malaysian"},"value":"N3","category":"B","rlsCode":"MALAYSIA"},
		{"title":{"en":"Albanian"},"value":"N9","category":"B","rlsCode":""},
		{"title":{"en":"American Samoan"},"value":"N10","category":"B","rlsCode":"AMERICAN SAMOA"},
		{"title":{"en":"Andorran"},"value":"N11","category":"B","rlsCode":"ANDORRA"},
		{"title":{"en":"Anguillan"},"value":"N12","category":"B","rlsCode":"ANGUILLA"},
		{"title":{"en":"Antiguan & Barbudan"},"value":"N13","category":"B","rlsCode":"ANTIGUA AND BARBUDA"},
		{"title":{"en":"Argentine"},"value":"N14","category":"B","rlsCode":"ARGENTINA"},
		{"title":{"en":"Armenian"},"value":"N15","category":"B","rlsCode":"ARMENIA"},
		{"title":{"en":"Aruban"},"value":"N16","category":"B","rlsCode":"ARUBA"},
		{"title":{"en":"Australian"},"value":"N17","category":"B","rlsCode":"AUSTRALIA"},
		{"title":{"en":"Austrian"},"value":"N18","category":"B","rlsCode":"AUSTRIA"},
		{"title":{"en":"Azerbaijani, Azeri"},"value":"N19","category":"B","rlsCode":"AZERBAIJAN"},
		{"title":{"en":"Bahamian"},"value":"N20","category":"B","rlsCode":"BAHAMAS"},
		{"title":{"en":"Bahraini"},"value":"N21","category":"B","rlsCode":"BAHRAIN"},
		{"title":{"en":"Bangladeshi"},"value":"N22","category":"B","rlsCode":"BANGLADESH"},
		{"title":{"en":"Barbadian"},"value":"N23","category":"B","rlsCode":"BARBADOS"},
		{"title":{"en":"Barthelemois"},"value":"N24","category":"B","rlsCode":""},
		{"title":{"en":"Belgian"},"value":"N25","category":"B","rlsCode":"BELGIUM"},
		{"title":{"en":"Belizean"},"value":"N26","category":"B","rlsCode":"BELIZE"},
		{"title":{"en":"Bermudian, Bermudan"},"value":"N27","category":"B","rlsCode":"BERMUDA"},
		{"title":{"en":"Bonaire"},"value":"N28","category":"B","rlsCode":"BONAIRE, SINT EUSTATIUS AND SABA"},
		{"title":{"en":"Bosnian or Herzegovinian"},"value":"N29","category":"B","rlsCode":"BOSNIA AND HERZEGOVINA"},
		{"title":{"en":"Bouvet Island"},"value":"N30","category":"B","rlsCode":"BOUVET ISLAND"},
		{"title":{"en":"Brazilian"},"value":"N31","category":"B","rlsCode":"BRAZIL"},
		{"title":{"en":"British"},"value":"N32","category":"B","rlsCode":"UNITED KINGDOM"},
		{"title":{"en":"British Virgin Island"},"value":"N33","category":"B","rlsCode":"VIRGIN ISLANDS, BRITISH"},
		{"title":{"en":"Bruneian"},"value":"N34","category":"B","rlsCode":"BRUNEI DARUSSALAM"},
		{"title":{"en":"Bulgarian"},"value":"N35","category":"B","rlsCode":"BULGARIA"},
		{"title":{"en":"Burmese"},"value":"N36","category":"B","rlsCode":"MYANMAR"},
		{"title":{"en":"Cambodian"},"value":"N37","category":"B","rlsCode":"CAMBODIA"},
		{"title":{"en":"Canadian"},"value":"N38","category":"B","rlsCode":"CANADA"},
		{"title":{"en":"Cape Verdean"},"value":"N39","category":"B","rlsCode":"CAPE VERDE"},
		{"title":{"en":"Caymanian"},"value":"N40","category":"B","rlsCode":"CAYMAN ISLANDS"},
		{"title":{"en":"Channel Island"},"value":"N41","category":"B","rlsCode":""},
		{"title":{"en":"Chilean"},"value":"N42","category":"B","rlsCode":"CHILE"},
		{"title":{"en":"Christmas Island"},"value":"N43","category":"B","rlsCode":"CHRISTMAS ISLAND"},
		{"title":{"en":"Cocos Island"},"value":"N44","category":"B","rlsCode":"COCOS (KEELING) ISLANDS"},
		{"title":{"en":"Cook Island"},"value":"N45","category":"B","rlsCode":"COOK ISLANDS"},
		{"title":{"en":"Costa Rican"},"value":"N46","category":"B","rlsCode":"COSTA RICA"},
		{"title":{"en":"Croatian"},"value":"N47","category":"B","rlsCode":"CROATIA"},
		{"title":{"en":"Cypriot"},"value":"N48","category":"B","rlsCode":"CYPRUS"},
		{"title":{"en":"Czech"},"value":"N49","category":"B","rlsCode":"CZECH REPUBLIC"},
		{"title":{"en":"Danish"},"value":"N50","category":"B","rlsCode":"DENMARK"},
		{"title":{"en":"Dominican"},"value":"N51","category":"B","rlsCode":"DOMINICA"},
		{"title":{"en":"Dutch, Netherlandic"},"value":"N52","category":"B","rlsCode":"NETHERLANDS"},
		{"title":{"en":"Ecuadorian"},"value":"N53","category":"B","rlsCode":"ECUADOR"},
		{"title":{"en":"Estonian"},"value":"N54","category":"B","rlsCode":"ESTONIA"},
		{"title":{"en":"Falkland Island"},"value":"N55","category":"B","rlsCode":"FALKLAND ISLANDS (MALVINAS)"},
		{"title":{"en":"Faroese"},"value":"N56","category":"B","rlsCode":"FAROE ISLANDS"},
		{"title":{"en":"Fijian"},"value":"N57","category":"B","rlsCode":"FIJI"},
		{"title":{"en":"Finnish"},"value":"N58","category":"B","rlsCode":"FINLAND"},
		{"title":{"en":"French"},"value":"N59","category":"B","rlsCode":"FRANCE"},
		{"title":{"en":"French Guianese"},"value":"N60","category":"B","rlsCode":"FRENCH GUIANA"},
		{"title":{"en":"French Polynesian"},"value":"N61","category":"B","rlsCode":"FRENCH POLYNESIA"},
		{"title":{"en":"Georgian"},"value":"N62","category":"B","rlsCode":"GEORGIA"},
		{"title":{"en":"German"},"value":"N63","category":"B","rlsCode":"GERMANY"},
		{"title":{"en":"Gibraltar"},"value":"N64","category":"B","rlsCode":"GIBRALTAR"},
		{"title":{"en":"Greek, Hellenic"},"value":"N65","category":"B","rlsCode":"GREECE"},
		{"title":{"en":"Greenlandic"},"value":"N66","category":"B","rlsCode":"GREENLAND"},
		{"title":{"en":"Grenadian"},"value":"N67","category":"B","rlsCode":"GRENADA"},
		{"title":{"en":"Guadeloupe"},"value":"N68","category":"B","rlsCode":"GUADELOUPE"},
		{"title":{"en":"Guamanian, Guambat"},"value":"N69","category":"B","rlsCode":"GUAM"},
		{"title":{"en":"Guatemalan"},"value":"N70","category":"B","rlsCode":"GUATEMALA"},
		{"title":{"en":"Guyanese"},"value":"N71","category":"B","rlsCode":"GUYANA"},
		{"title":{"en":"Heard Island or McDonald Islands"},"value":"N72","category":"B","rlsCode":"HEARD ISLAND AND MCDONALD ISLANDS"},
		{"title":{"en":"Honduran"},"value":"N73","category":"B","rlsCode":"HONDURAS"},
		{"title":{"en":"Hong Kongese"},"value":"N7","category":"B","rlsCode":"HONG KONG"},
		{"title":{"en":"Hungarian, Magyar"},"value":"N74","category":"B","rlsCode":"HUNGARY"},
		{"title":{"en":"Icelandic"},"value":"N75","category":"B","rlsCode":"ICELAND"},
		{"title":{"en":"Irish"},"value":"N77","category":"B","rlsCode":"IRELAND"},
		{"title":{"en":"Israeli"},"value":"N78","category":"B","rlsCode":"ISRAEL"},
		{"title":{"en":"Italian"},"value":"N79","category":"B","rlsCode":"ITALY"},
		{"title":{"en":"Jamaican"},"value":"N80","category":"B","rlsCode":"JAMAICA"},
		{"title":{"en":"Japanese"},"value":"N81","category":"B","rlsCode":"JAPAN"},
		{"title":{"en":"Jordanian"},"value":"N82","category":"B","rlsCode":"JORDAN"},
		{"title":{"en":"Kazakhstani, Kazakh"},"value":"N83","category":"B","rlsCode":"KAZAKHSTAN"},
		{"title":{"en":"Kittitian or Nevisian"},"value":"N84","category":"B","rlsCode":"SAINT KITTS AND NEVIS"},
		{"title":{"en":"Kuwaiti"},"value":"N85","category":"B","rlsCode":"KUWAIT"},
		{"title":{"en":"Kyrgyzstani, Kyrgyz, Kirgiz, Kirghiz"},"value":"N86","category":"B","rlsCode":"KYRGYZSTAN"},
		{"title":{"en":"Latvian"},"value":"N87","category":"B","rlsCode":"LATVIA"},
		{"title":{"en":"Liechtenstein"},"value":"N88","category":"B","rlsCode":"LIECHTENSTEIN"},
		{"title":{"en":"Lithuanian"},"value":"N89","category":"B","rlsCode":"LITHUANIA"},
		{"title":{"en":"Luxembourg, Luxembourgish"},"value":"N90","category":"B","rlsCode":"LUXEMBOURG"},
		{"title":{"en":"Macanese"},"value":"N91","category":"B","rlsCode":"MACAO"},
		{"title":{"en":"Maldivian"},"value":"N92","category":"B","rlsCode":"MALDIVES"},
		{"title":{"en":"Maltese"},"value":"N93","category":"B","rlsCode":"MALTA"},
		{"title":{"en":"Manx"},"value":"N94","category":"B","rlsCode":"ISLE OF MAN"},
		{"title":{"en":"Marshallese"},"value":"N95","category":"B","rlsCode":"MARSHALL ISLANDS"},
		{"title":{"en":"Martiniquais, Martinican"},"value":"N96","category":"B","rlsCode":"MARTINIQUE"},
		{"title":{"en":"Mauritian"},"value":"N97","category":"B","rlsCode":"MAURITIUS"},
		{"title":{"en":"Mexican"},"value":"N98","category":"B","rlsCode":"MEXICO"},
		{"title":{"en":"Micronesian"},"value":"N99","category":"B","rlsCode":"MICRONESIA, FEDERATED STATES OF"},
		{"title":{"en":"MonÃ©gasque, Monacan"},"value":"N100","category":"B","rlsCode":"MONACO"},
		{"title":{"en":"Montenegrin"},"value":"N101","category":"B","rlsCode":"MONTENEGRO"},
		{"title":{"en":"Montserratian"},"value":"N102","category":"B","rlsCode":"MONTSERRAT"},
		{"title":{"en":"Moroccan"},"value":"N103","category":"B","rlsCode":"MOROCCO"},
		{"title":{"en":"Nauruan"},"value":"N104","category":"B","rlsCode":"NAURU"},
		{"title":{"en":"New Caledonian"},"value":"N105","category":"B","rlsCode":"NEW CALEDONIA"},
		{"title":{"en":"New Zealand, NZ"},"value":"N106","category":"B","rlsCode":"NEW ZEALAND"},
		{"title":{"en":"Nicaraguan"},"value":"N107","category":"B","rlsCode":"NICARAGUA"},
		{"title":{"en":"Niuean"},"value":"N108","category":"B","rlsCode":"NIUE"},
		{"title":{"en":"Norfolk Island"},"value":"N109","category":"B","rlsCode":"NORFOLK ISLAND"},
		{"title":{"en":"Northern Marianan"},"value":"N110","category":"B","rlsCode":"NORTHERN MARIANA ISLANDS"},
		{"title":{"en":"Norwegian"},"value":"N111","category":"B","rlsCode":"NORWAY"},
		{"title":{"en":"Omani"},"value":"N112","category":"B","rlsCode":"OMAN"},
		{"title":{"en":"Others"},"value":"N113","category":"B","rlsCode":""},
		{"title":{"en":"Palauan"},"value":"N114","category":"B","rlsCode":"PALAU"},
		{"title":{"en":"Panamanian"},"value":"N115","category":"B","rlsCode":"PANAMA"},
		{"title":{"en":"Papua New Guinean, Papuan"},"value":"N116","category":"B","rlsCode":"PAPUA NEW GUINEA"},
		{"title":{"en":"Paraguayan"},"value":"N117","category":"B","rlsCode":"PARAGUAY"},
		{"title":{"en":"Peruvian"},"value":"N118","category":"B","rlsCode":"PERU"},
		{"title":{"en":"Pitcarn Island"},"value":"N120","category":"B","rlsCode":"PITCAIRN"},
		{"title":{"en":"Polish"},"value":"N121","category":"B","rlsCode":"POLAND"},
		{"title":{"en":"Portuguese"},"value":"N122","category":"B","rlsCode":"PORTUGAL"},
		{"title":{"en":"Puerto Rican"},"value":"N123","category":"B","rlsCode":"PUERTO RICO"},
		{"title":{"en":"Qatari"},"value":"N124","category":"B","rlsCode":"QATAR"},
		{"title":{"en":"Romanian"},"value":"N125","category":"B","rlsCode":"ROMANIA"},
		{"title":{"en":"Saint Helenian"},"value":"N126","category":"B","rlsCode":"SAINT HELENA, ASCENSION AND TRISTAN DA CUNHA"},
		{"title":{"en":"Saint Lucian"},"value":"N127","category":"B","rlsCode":"SAINT LUCIA"},
		{"title":{"en":"Saint Vincentian, Vincentian"},"value":"N128","category":"B","rlsCode":"SAINT VINCENT AND THE GRENADINES"},
		{"title":{"en":"Saint-Martinoise"},"value":"N129","category":"B","rlsCode":"SAINT MARTIN (FRENCH PART)"},
		{"title":{"en":"Saint-Pierrais, Miquelonnais"},"value":"N130","category":"B","rlsCode":"SAINT PIERRE AND MIQUELON"},
		{"title":{"en":"Salvadoran"},"value":"N131","category":"B","rlsCode":"EL SALVADOR"},
		{"title":{"en":"Sammarinese"},"value":"N132","category":"B","rlsCode":"SAN MARINO"},
		{"title":{"en":"Saudi, Saudi Arabian"},"value":"N133","category":"B","rlsCode":"SAUDI ARABIA"},
		{"title":{"en":"Serbian"},"value":"N134","category":"B","rlsCode":"SERBIA"},
		{"title":{"en":"Slovak"},"value":"N135","category":"B","rlsCode":"SLOVAKIA"},
		{"title":{"en":"Slovenian, Slovene"},"value":"N136","category":"B","rlsCode":"SLOVENIA"},
		{"title":{"en":"South African"},"value":"N137","category":"B","rlsCode":"SOUTH AFRICA"},
		{"title":{"en":"South Georgia or South Sandwich Islands"},"value":"N138","category":"B","rlsCode":"SOUTH GEORGIA AND THE SOUTH SANDWICH ISLANDS"},
		{"title":{"en":"South Korean"},"value":"N139","category":"B","rlsCode":"KOREA, REPUBLIC OF"},
		{"title":{"en":"Spanish"},"value":"N140","category":"B","rlsCode":"SPAIN"},
		{"title":{"en":"Sri Lankan"},"value":"N141","category":"B","rlsCode":"SRI LANKA"},
		{"title":{"en":"Svalbard"},"value":"N142","category":"B","rlsCode":"SVALBARD AND JAN MAYEN"},
		{"title":{"en":"Swedish"},"value":"N143","category":"B","rlsCode":"SWEDEN"},
		{"title":{"en":"Swiss"},"value":"N144","category":"B","rlsCode":"SWITZERLAND"},
		{"title":{"en":"Tajikistani"},"value":"N145","category":"B","rlsCode":"TAJIKISTAN"},
		{"title":{"en":"Tokelauan"},"value":"N146","category":"B","rlsCode":"TOKELAU"},
		{"title":{"en":"Tongan"},"value":"N147","category":"B","rlsCode":"TONGA"},
		{"title":{"en":"Trinidian or Tobagonian"},"value":"N148","category":"B","rlsCode":"TRINIDAD AND TOBAGO"},
		{"title":{"en":"Tunisian"},"value":"N149","category":"B","rlsCode":"TUNISIA"},
		{"title":{"en":"Turkish"},"value":"N150","category":"B","rlsCode":"TURKEY"},
		{"title":{"en":"Turks and Caicos Island"},"value":"N151","category":"B","rlsCode":"TURKS AND CAICOS ISLANDS"},
		{"title":{"en":"U.S. Virgin Island"},"value":"N152","category":"B","rlsCode":"VIRGIN ISLANDS, U.S."},
		{"title":{"en":"Uruguayan"},"value":"N153","category":"B","rlsCode":"URUGUAY"},
		{"title":{"en":"Vatican"},"value":"N154","category":"B","rlsCode":"HOLY SEE (VATICAN CITY STATE)"},
		{"title":{"en":"Venezuelan"},"value":"N155","category":"B","rlsCode":"VENEZUELA, BOLIVARIAN REPUBLIC OF"},
		{"title":{"en":"Vietnamese"},"value":"N156","category":"B","rlsCode":"VIET NAM"},
		{"title":{"en":"Wallis and Futuna, Wallisian or Futunan"},"value":"N157","category":"B","rlsCode":"WALLIS AND FUTUNA"},
		{"title":{"en":"Belarusian"},"value":"N158","category":"C","rlsCode":"BELARUS"},
		{"title":{"en":"Congolese"},"value":"N159","category":"C","rlsCode":"CONGO"},
		{"title":{"en":"Crimean"},"value":"N160","category":"C","rlsCode":""},
		{"title":{"en":"Cuban"},"value":"N161","category":"C","rlsCode":"CUBA"},
		{"title":{"en":"Iranian, Persian"},"value":"N162","category":"C","rlsCode":"IRAN, ISLAMIC REPUBLIC OF"},
		{"title":{"en":"North Korean"},"value":"N163","category":"C","rlsCode":"KOREA, DEMOCRATIC PEOPLE'S REPUBLIC OF"},
		{"title":{"en":"Russian"},"value":"N164","category":"C","rlsCode":"RUSSIAN FEDERATION"},
		{"title":{"en":"Somali, Somalian"},"value":"N165","category":"C","rlsCode":"SOMALIA"},
		{"title":{"en":"Sudanese"},"value":"N166","category":"C","rlsCode":"SUDAN"},
		{"title":{"en":"Syrian"},"value":"N167","category":"C","rlsCode":"SYRIAN ARAB REPUBLIC"},
		{"title":{"en":"Ukrainian"},"value":"N168","category":"C","rlsCode":"UKRAINE"},
		{"title":{"en":"Zimbabwean"},"value":"N169","category":"C","rlsCode":"ZIMBABWE"},
		{"title":{"en":"Afghan"},"value":"N170","category":"D","rlsCode":"AFGHANISTAN"},
		{"title":{"en":"Aland Island"},"value":"N171","category":"D","rlsCode":"ALAND ISLANDS"},
		{"title":{"en":"Algerian"},"value":"N172","category":"D","rlsCode":"ALGERIA"},
		{"title":{"en":"Angolan"},"value":"N173","category":"D","rlsCode":"ANGOLA"},
		{"title":{"en":"Basotho"},"value":"N174","category":"D","rlsCode":"LESOTHO"},
		{"title":{"en":"Beninese, Beninois"},"value":"N175","category":"D","rlsCode":"BENIN"},
		{"title":{"en":"Bhutanese"},"value":"N176","category":"D","rlsCode":"BHUTAN"},
		{"title":{"en":"BIOT (British Indian Ocean Territory)"},"value":"N177","category":"D","rlsCode":"BRITISH INDIAN OCEAN TERRITORY"},
		{"title":{"en":"Bissau-Guinean"},"value":"N178","category":"D","rlsCode":"GUINEA-BISSAU"},
		{"title":{"en":"Bolivian"},"value":"N179","category":"D","rlsCode":"BOLIVIA, PLURINATIONAL STATE OF"},
		{"title":{"en":"Botswanan, Motswana"},"value":"N180","category":"D","rlsCode":"BOTSWANA"},
		{"title":{"en":"BurkinabÃ©"},"value":"N181","category":"D","rlsCode":"BURKINA FASO"},
		{"title":{"en":"Burundian"},"value":"N182","category":"D","rlsCode":"BURUNDI"},
		{"title":{"en":"Cameroonian"},"value":"N183","category":"D","rlsCode":"CAMEROON"},
		{"title":{"en":"Central African"},"value":"N184","category":"D","rlsCode":"CENTRAL AFRICAN REPUBLIC"},
		{"title":{"en":"Chadian"},"value":"N185","category":"D","rlsCode":"CHAD"},
		{"title":{"en":"Colombian"},"value":"N186","category":"D","rlsCode":"COLOMBIA"},
		{"title":{"en":"Comoran, Comorian"},"value":"N187","category":"D","rlsCode":"COMOROS"},
		{"title":{"en":"Djiboutian"},"value":"N188","category":"D","rlsCode":"DJIBOUTI"},
		{"title":{"en":"Egyptian"},"value":"N189","category":"D","rlsCode":"EGYPT"},
		{"title":{"en":"Emirati, Emirian, Emiri"},"value":"N190","category":"D","rlsCode":"UNITED ARAB EMIRATES"},
		{"title":{"en":"Equatorial Guinean, Equatoguinean"},"value":"N191","category":"D","rlsCode":"EQUATORIAL GUINEA"},
		{"title":{"en":"Eritrean"},"value":"N192","category":"D","rlsCode":"ERITREA"},
		{"title":{"en":"Ethiopian"},"value":"N193","category":"D","rlsCode":"ETHIOPIA"},
		{"title":{"en":"Gabonese"},"value":"N194","category":"D","rlsCode":"GABON"},
		{"title":{"en":"Gambian"},"value":"N195","category":"D","rlsCode":"GAMBIA"},
		{"title":{"en":"Ghanaian"},"value":"N196","category":"D","rlsCode":"GHANA"},
		{"title":{"en":"Guinean"},"value":"N197","category":"D","rlsCode":"GUINEA"},
		{"title":{"en":"Haitian"},"value":"N198","category":"D","rlsCode":"HAITI"},
		{"title":{"en":"I-Kiribati"},"value":"N199","category":"D","rlsCode":"KIRIBATI"},
		{"title":{"en":"Iraqi"},"value":"N200","category":"D","rlsCode":"IRAQ"},
		{"title":{"en":"Ivorian"},"value":"N201","category":"D","rlsCode":""},
		{"title":{"en":"Kenyan"},"value":"N202","category":"D","rlsCode":"KENYA"},
		{"title":{"en":"Kosovan, Kosovar"},"value":"N203","category":"D","rlsCode":""},
		{"title":{"en":"Lao, Laotian"},"value":"N204","category":"D","rlsCode":"LAO PEOPLE'S DEMOCRATIC REPUBLIC"},
		{"title":{"en":"Lebanese"},"value":"N205","category":"D","rlsCode":"LEBANON"},
		{"title":{"en":"Liberian"},"value":"N206","category":"D","rlsCode":"LIBERIA"},
		{"title":{"en":"Libyan"},"value":"N207","category":"D","rlsCode":"LIBYA"},
		{"title":{"en":"Macedonian"},"value":"N208","category":"D","rlsCode":"MACEDONIA, THE FORMER YUGOSLAV REPUBLIC OF"},
		{"title":{"en":"Mahoran"},"value":"N209","category":"D","rlsCode":"MAYOTTE"},
		{"title":{"en":"Malagasy"},"value":"N210","category":"D","rlsCode":"MADAGASCAR"},
		{"title":{"en":"Malawian"},"value":"N211","category":"D","rlsCode":"MALAWI"},
		{"title":{"en":"Malian, Malinese"},"value":"N212","category":"D","rlsCode":"MALI"},
		{"title":{"en":"Mauritanian"},"value":"N213","category":"D","rlsCode":"MAURITANIA"},
		{"title":{"en":"Moldovan"},"value":"N214","category":"D","rlsCode":"MOLDOVA, REPUBLIC OF"},
		{"title":{"en":"Mongolian"},"value":"N215","category":"D","rlsCode":"MONGOLIA"},
		{"title":{"en":"Mozambican"},"value":"N216","category":"D","rlsCode":"MOZAMBIQUE"},
		{"title":{"en":"Namibian"},"value":"N217","category":"D","rlsCode":"NAMIBIA"},
		{"title":{"en":"Nepali, Nepalese"},"value":"N218","category":"D","rlsCode":"NEPAL"},
		{"title":{"en":"Nigerian, Nigerien"},"value":"N219","category":"D","rlsCode":"NIGERIA"},
		{"title":{"en":"Ni-Vanuatu, Vanuatuan"},"value":"N220","category":"D","rlsCode":"VANUATU"},
		{"title":{"en":"Pakistani"},"value":"N221","category":"D","rlsCode":"PAKISTAN"},
		{"title":{"en":"Palestinian"},"value":"N222","category":"D","rlsCode":"PALESTINE, STATE OF"},
		{"title":{"en":"Reunionese, Reunionnais"},"value":"N223","category":"D","rlsCode":"REUNION"},
		{"title":{"en":"Rwandan"},"value":"N224","category":"D","rlsCode":"RWANDA"},
		{"title":{"en":"Sahrawi, Sahrawian, Sahraouian"},"value":"N225","category":"D","rlsCode":""},
		{"title":{"en":"Samoan"},"value":"N226","category":"D","rlsCode":"SAMOA"},
		{"title":{"en":"SÃ£o TomÃ©an"},"value":"N227","category":"D","rlsCode":"SAO TOME AND PRINCIPE"},
		{"title":{"en":"Senegalese"},"value":"N228","category":"D","rlsCode":"SENEGAL"},
		{"title":{"en":"Seychellois"},"value":"N229","category":"D","rlsCode":"SEYCHELLES"},
		{"title":{"en":"Sierra Leonean"},"value":"N230","category":"D","rlsCode":"SIERRA LEONE"},
		{"title":{"en":"Solomon Island"},"value":"N231","category":"D","rlsCode":"SOLOMON ISLANDS"},
		{"title":{"en":"South Sudanese"},"value":"N232","category":"D","rlsCode":"SOUTH SUDAN"},
		{"title":{"en":"Surinamese"},"value":"N233","category":"D","rlsCode":"SURINAME"},
		{"title":{"en":"Swazi"},"value":"N234","category":"D","rlsCode":"SWAZILAND"},
		{"title":{"en":"Taiwanese"},"value":"N8","category":"B","rlsCode":"TAIWAN, PROVINCE OF CHINA"},
		{"title":{"en":"Tanzanian"},"value":"N235","category":"D","rlsCode":"TANZANIA, UNITED REPUBLIC OF"},
		{"title":{"en":"Thai"},"value":"N6","category":"B","rlsCode":"THAILAND"},
		{"title":{"en":"Timorese"},"value":"N236","category":"D","rlsCode":"TIMOR-LESTE"},
		{"title":{"en":"Togolese"},"value":"N237","category":"D","rlsCode":"TOGO"},
		{"title":{"en":"Turkmen"},"value":"N238","category":"D","rlsCode":"TURKMENISTAN"},
		{"title":{"en":"Tuvaluan"},"value":"N239","category":"D","rlsCode":"TUVALU"},
		{"title":{"en":"Ugandan"},"value":"N240","category":"D","rlsCode":"UGANDA"},
		{"title":{"en":"Uzbekistani, Uzbek"},"value":"N241","category":"D","rlsCode":"UZBEKISTAN"},
		{"title":{"en":"Yemeni"},"value":"N242","category":"D","rlsCode":"YEMEN"},
		{"title":{"en":"Zambian"},"value":"N243","category":"D","rlsCode":"ZAMBIA"},
		{"title":{"en":"American (US)"},"value":"N244","category":"E","rlsCode":"UNITED STATES"}
	],
	"type": "layout"
}