{
	"options": [{
		"title":{
			"en":"Brother"
		},
		"oppositeValue": "SIS",
		"value": "BRO",
		"opposite":{
			"M":"BRO",
			"F":"SIS"
		}
	},{
		"title": {
			"en": "Daughter"
		},
		"oppositeValue": "SON",
		"value": "DAU",
		"opposite": {
			"M":"FAT",
			"F":"MOT"
		}
	}, {
		"title": {
			"en": "Father"
		},
		"oppositeValue": "MOT",
		"value": "FAT",
		"opposite": {
			"M":"SON",
			"F":"DAU"
		}
	}, {
		"title": {
			"en": "Grand Daughter"
		},
		"oppositeValue": "GSO",
		"value": "GDA",
		"opposite": {
			"M":"GFA",
			"F":"GMO"
		}
	}, {
		"title": {
			"en": "Grand Father"
		},
		"oppositeValue": "GMO",
		"value": "GFA",
		"opposite": {
			"M":"GSO",
			"F":"GDA"
		}
	}, {
		"title": {
			"en": "Grand Mother"
		},
		"oppositeValue": "GFA",
		"value": "GMO",
		"opposite": {
			"M":"GSO",
			"F":"GDA"
		}
	}, {
		"title": {
			"en": "Grand Son"
		},
		"oppositeValue": "GDA",
		"value": "GSO",
		"opposite": {
			"M":"GFA",
			"F":"GMO"
		}
	}, {
		"title": {
			"en": "Mother"
		},
		"oppositeValue": "FAT",
		"value": "MOT",
		"opposite": {
			"M":"SON",
			"F":"DAU"
		}
	}, {
		"title": {
			"en": "Sister"
		},
		"oppositeValue": "BRO",
		"value": "SIS",
		"opposite": {
			"M":"BRO",
			"F":"SIS"
		}
	}, {
		"title": {
			"en": "Son"
		},
		"oppositeValue": "DAU",
		"value": "SON",
		"opposite": {
			"M":"FAT",
			"F":"MOT"
		}
	}, {
		"title": {
			"en": "Spouse"
		},
		"oppositeValue": "SPO",
		"value": "SPO",
		"opposite": {
			"M":"SPO",
			"F":"SPO"
		}
	}, {
		"title": {
			"en": "Others"
		},
		"oppositeValue": "OTH",
		"value": "OTH",
		"isOther": true,
		"opposite": {
			"M": "OTH",
			"F": "OTH"
		}
	}],
	"type": "layout"
}
