{
  "sessionSecret" : "7W1M6ufe5feoFIxZ",
  "couchbase_encrytion_key" : "pkp1BeaRdyYE8PrX",
  "quotationIdEncryptionKey": "t1vK729zUB1PiOFo",
  "output": {},
  "useDocCache": true,
  "enableRSA": true,
  "audDocRecordLimit": 100,
  "docCacheTimeout": 60000,
  "tempFolder": "temp",
  "signdoc": {
    "pdfTimeout"  : 1800000,
    "secretKey"   : "HiIJsJcxtJc2LknO"
  },
  "disableSMS": false,
  "signExpireWarningDay": 19,  
  "signExpireDay": 20,  
  "after_pEAppSigned_days": 2,  
  "EAPPROVAL_EXPIRY_DATE_FR_SUBMISSION": 5,
  "SECONDARY_PROXY_ASSIGNMENT_DAY": 2,
  "debugMode": false,
  "crossAgeDay": 14,
  "SUPPORT_DOCUMENTS_MAX_FILE_SIZE_IN_BYTE": 10485760,
  "biReleaseVersion": "3.1"
}
