{ 
    "type":"agent",
    "compCode":	"AG",
    "agentCode": "113097",
    "role":	"02",
    "name":	"G1130972R AXA@Post",
    "profileId":	"G1130972R",
    "channel":	"SINGPOST",
    "createDate": "1/7/2017",
    "lastUpdateDate":	"14/7/2017",
    "company":	"AXA Insurance Pte Ltd (Co. Reg. No. 199903512M)",
    "tel": "28637543",
    "mobile": "98754124",
    "email":	"Tom.chan@axa.com.sg",
    "position":	"Agent",
    "manager": "Tom Chan",
    "managerCode": "000002",
    "achievements": "AXA Signature, MDRT",
    "authorised":   "M9A,M9,M5,HI"
}
