D	U_S9073124F	U_S9073124F.json
D	U_G1801181L	U_G1801181L.json
D	U_T9342834F	U_T9342834F.json
D	U_G1130972R	U_G1130972R.json
D	U_S5302702D	U_S5302702D.json
D	U_T2807926A	U_T2807926A.json
D	U_T7893589D	U_T7893589D.json
D	U_S2195576J	U_S2195576J.json
D	U_F4655868P	U_F4655868P.json
D	U_G1966837T	U_G1966837T.json
D	U_F8707887Q	U_F8707887Q.json
D	U_G5220328M	U_G5220328M.json