{
  "host": {
    "path"        : "https://web.ease-sit.axa.com.sg",
    "port"        : "3000",
    "socket"      : "ws://web.ease-sit.axa.com.sg",
    "api"         : "http://ease-api:8080/ease-api" 
  },
  "saml": {
    "host"        : "https://preprodapfedsso.axa-tech.com/affwebservices/public/saml2sso?SPID=DEV_sp_sg_ease_sit_web_ext__idp_apdcaxatechcom",
    "signOut"     : "https://preprodapfedsso.axa-tech.com/public/SiMiMsg/logout?REDIRECT=https://web.ease-sit.axa.com.sg",
    "path"        : "/saml",
    "cert"        : "MIIEbDCCA1SgAwIBAgIBATANBgkqhkiG9w0BAQsFADB5MSAwHgYDVQQKDBdB WEEgVGVjaG5vbG9neSBTZXJ2aWNlczEYMBYGA1UECwwPQVBEQyBTaXRlTWlu ZGVyMRYwFAYDVQQDDA1GZWRlcmF0aW9uIENBMSMwIQYJKoZIhvcNAQkBFhRJ QU0uQ09FQGF4YS10ZWNoLmNvbTAeGA0yMDE2MTIwMTAwMDBaGA0yMDI2MDEw MTAwMDBaMHoxIDAeBgNVBAoMF0FYQSBUZWNobm9sb2d5IFNlcnZpY2VzMRgw FgYDVQQLDA9BUERDIFNpdGVNaW5kZXIxFzAVBgNVBAMMDmZlZGVyYXRpb24t ZGV2MSMwIQYJKoZIhvcNAQkBFhRJQU0uQ09FQGF4YS10ZWNoLmNvbTCCASIw DQYJKoZIhvcNAQEBBQADggEPADCCAQoCggEBAKGsG32KF/upe3jU6AK4vnAP 3rTmHhTwSrDLRKazkPQ8jr26aZQauuURbquApFruyfDtNw4dQOr8hZWEzcLV p77Ux2Nhl+4lkVMXNVvUKG/DrUO34rzpEvxcev2QEm4xxJtOnKf8uyVEXU4s p4keuFO4gCCRwtzOtnWLJX1Kx+Xrhxw84maVHl+6ft2TZfOOmLB7vTr9us/h 9CaiBexogrRczlKcHMwgOmYE8klXSDQpiC0eoLnsfwuaNmB9F4zvfdD8EkbN 2X6z2FN6LdJoKw3fJkzMgVkUUwyg1lnxwSexTiVM7HXIGB+FMJ1RdBtQfuck nYK4Rczobl2zPCKiUOkCAwEAAaOB/TCB+jAJBgNVHRMEAjAAMB0GA1UdDgQW BBQTQg8mJzTE5rKv5URDmK2Ctu/i+zCBqwYDVR0jBIGjMIGggBTI3gZBuBqD zVBewAT5xSAb19XyVKF9pHsweTEgMB4GA1UECgwXQVhBIFRlY2hub2xvZ3kg U2VydmljZXMxGDAWBgNVBAsMD0FQREMgU2l0ZU1pbmRlcjEWMBQGA1UEAwwN RmVkZXJhdGlvbiBDQTEjMCEGCSqGSIb3DQEJARYUSUFNLkNPRUBheGEtdGVj aC5jb22CCQDCQlR8PZam6DATBgNVHSUEDDAKBggrBgEFBQcDATALBgNVHQ8E BAMCBaAwDQYJKoZIhvcNAQELBQADggEBADHCxuwBiS3w3UuV5Y1ZLAiCURgT lPFc3eZ6Qe403f8/PsRYOfCDWLW5smneHT9SRJrM7m0DMxmKF1bndrYC21TH z+sAutt3wIwJh6k+KqPcYuP6H3mHokqBy93We7Ux6dYtFvCHETProGRs3kDB eC0NFDHDOl3STes50RC29rebs/CPTIVd7Q/43UzRUDUXaFPxC7SCfXJTy1ZV N1mFTPAAJ6hqb/v7FQd4bNitGaPS27obRGVIEDYV9mO1akUTo6qVt5+wcukt GQycime5afC5Y/ONV90xLoeAYAwSf12vFiE9ZMRL98eb0ESpNGTi8fu/U/X4 Z4+cIiA2EvkSilU="
  },
  "redis": {
    "path"        : "redis",
    "port"        : 6379
  },
  "sg": {
    "path"        : "openshift-nginx",
    "port"        : "4984",
    "name"        : "axasgsit",
    "user"        : "easeWeb",
    "pw"          : "ABC1234"
  },
  "signdoc": {
    "host"        : "web.ease-sit.axa.com.sg",
    "postUrl"     : "https://web.ease-sit.axa.com.sg/sdweb/load/byurl",
    "getPdf"      : "http://ease-web:3000/getAttachmentPdf", 
    "resultUrl"   : "https://web.ease-sit.axa.com.sg/static/getSignDocResult",
    "dmsid"       : "de.softpro.sdweb.plugins.impl.ServletDms"
  }
}