{
    "compCode": "08",
    "effDate": "2018-04-09 00:00:00",
    "expDate": "2050-04-09 10:47:08",
    "formulas": {
        "prepareReportData": "function(quotation, planInfo, planDetails, extraPara) { var illust = extraPara.illustrations[planInfo.covCode]; var deathBenefit = []; var surrenderValue = []; var distributionCost = []; var retirementAge = parseInt(quotation.policyOptions.retirementAge); var payoutTerm = parseInt(quotation.policyOptions.payoutTerm); var policyTerm = planInfo.policyTerm; var payoutAgeMax = 0; if ((payoutTerm == 15) || (payoutTerm == 20)){ payoutAgeMax = retirementAge + payoutTerm; } else{ payoutAgeMax = 99; } var sizePlans = quotation.plans.length; var bpPremTerm = quotation.plans[0].premTerm; var maxRiderPolTerm = 0; var numYearsRiderLeft = 0; if (sizePlans > 2){/**Only one optional rider can be added at a time.*/ var riderPlan = quotation.plans[2]; if (riderPlan.covCode === 'PET_RHP'){maxRiderPolTerm = riderPlan.policyTerm;} if (riderPlan.covCode === 'UNBN_RHP'){maxRiderPolTerm = riderPlan.premTerm;} if (riderPlan.covCode === 'WUN_RHP'){maxRiderPolTerm = riderPlan.policyTerm;} numYearsRiderLeft = maxRiderPolTerm; } var i; var yearCount = 0; var yearCountRider = 0; for (i = 0; i < illust.length; i++){ var row = illust[i]; var policyYear = row.policyYear; var age = row.age; var policyYearAge = policyYear + ' / ' + age; var premium = getCurrency(Math.round(row.totalPremiumPaidToDate), '', 0); var incRow = false; var incRowRider = false; if ((policyYear <= policyTerm) && (age <= payoutAgeMax)){ if (sizePlans > 2){/** has optional riders*/ if (policyYear <= maxRiderPolTerm){ if (i < 10){incRowRider = true; numYearsRiderLeft--;} else{ if (numYearsRiderLeft >= 5){ yearCountRider++; if (yearCountRider == 5){ yearCountRider = 0; numYearsRiderLeft -= 5; incRowRider = true; } } else { if (numYearsRiderLeft > 0){ numYearsRiderLeft--; if (numYearsRiderLeft == 0) {incRowRider = true;} } } } } } if (age < retirementAge){ if (i < 10){incRow = true;} else{ yearCount++; if (yearCount == 5){ yearCount = 0; incRow = true; } } } else{ incRow = true; } } if (incRow){ deathBenefit.push({ policyYearAge: policyYearAge, premiumsPaidToDate: premium, guaranteed: getCurrency(Math.round(row.suppGteedDeathBenefit), '', 0), nonGuaranteedLow: getCurrency(Math.round(row.suppNonGteedDeathBenefit['3.25']), '', 0), totalLow: getCurrency(Math.round(row.suppTotalDeathBenefit['3.25']), '', 0), nonGuaranteedHigh: getCurrency(Math.round(row.suppNonGteedDeathBenefit['4.75']), '', 0), totalHigh: getCurrency(Math.round(row.suppTotalDeathBenefit['4.75']), '', 0), }); surrenderValue.push({ policyYearAge: policyYearAge, premiumsPaidToDate: premium, retireIncPayout: getCurrency(Math.round(row.guranteedAnnualRetireIncPayout), '', 0), guaranteed: getCurrency(Math.round(row.suppGteedSurrenderValue), '', 0), nonGuaranteedLow: getCurrency(Math.round(row.suppNonGteedSurrenderValue['3.25']), '', 0), totalLow: getCurrency(Math.round(row.suppTotalSurrenderValue['3.25']), '', 0), nonGuaranteedHigh: getCurrency(Math.round(row.suppNonGteedSurrenderValue['4.75']), '', 0), totalHigh: getCurrency(Math.round(row.suppTotalSurrenderValue['4.75']), '', 0) }); } if (incRowRider){ distributionCost.push({ policyYearAge: policyYearAge, premiumsPaidToDate: getCurrency(Math.round(row.suppRiderPremiumPaid), '', 0), distributionCost: getCurrency(Math.round(row.suppTotalDistributionCost), '', 0) }); } } var result = { illustrationSup: { deathBenefit: deathBenefit, surrenderValue: surrenderValue, distributionCost: distributionCost } }; return result; }"
    },
    "launchDate": "2018-04-09 10:44:49",
    "pdfCode": "RHP_SUPP_BI",
    "pdfName": {
        "en": "RHP Suplementary BI",
        "zh-Hant": "RHP Supplementary BI",
        "zh-tw": "RHP Suplementary BI"
    },
    "ref_no": "RHP SUPP BI",
    "releaseDate": "2018-05-25 16:37:45",
    "remarks": {
        "en": "RHP Supplementary BI",
        "zh-tw": "RHP Supplementary BI"
    },
    "status": "A",
    "style": "#last-sup-page{counter-increment:supLastPage;}#last-second-sup-page{counter-increment:supLastSecondPage;}",
    "task_desc": "RHP SUPP BI",
    "template": {
        "en": [
            "<div class=\"global_main\">\n\n\t<table class=\"w100\">\n\t\t<thead>\n\t\t\t<tr>\n\t\t\t\t<th colspan=\"4\" style=\"text-align: center; width: 100%; padding-bottom: 10px;\"><strong>SUPPLEMENTARY BENEFIT ILLUSTRATION</strong></th>\n\t\t\t</tr>\n\t\t\t\n\t\t\t<tr>\n                <th colspan=\"2\" class=\"vtop vpd2 b tleft\" style=\"width: 60%;\">\n                    <span>Proposal on the life of: </span>\n\t\t\t\t\t<span><xsl:value-of select=\"*/cover/insured/name\"/></span>\n                </th>\n                \n\t\t\t\t<th class=\"vtop vpd2 b tleft\" style=\"width: 50px;\">\n                    <span>Date</span>\n                </th>\n                <th class=\"vtop vpd2 tleft\">\n                    <span>:\n                        <xsl:value-of select=\"*/cover/genDate\" />\n                    </span>\n                </th>\n            </tr>\n\t\t\t\n            <tr style=\"border-bottom: solid 1pt black\">\n                <th colspan=\"2\" class=\"vtop vpd2 b tleft\">\n                    <span>Gender: </span>\n\t\t\t\t\t<span>\n\t\t\t\t\t\t<xsl:value-of select=\"*/cover/insured/gender\" /> \n\t\t\t\t\t\t(<xsl:value-of select=\"*/cover/insured/smoking\" />)\n\t\t\t\t\t</span>\n                </th>\n                <th class=\"vtop vpd2 b tleft\">\n                    <span>Age</span>\n                </th>\n                <th class=\"vtop vpd2 tleft\">\n                    <span>:\n                        <xsl:value-of select=\"*/cover/insured/age\" /> (As At\n                        <xsl:value-of select=\"*/cover/riskCommenDate\"/>)\n                    </span>\n                </th>\n            </tr>\n\t\t\t\n\t\t\t<tr>\n                <th colspan=\"4\" style=\"text-align: center; width: 100%; padding-bottom: 10px;\"></th>\n            </tr>\n\t\t</thead>\n\t\n\t\t\n\t\t<tbody>\n            <tr>\n                <td colspan=\"4\">\n\t\t\t\t\t<div id=\"pageDB\">\n\t\t\t\t\t\t<table class=\"w100\">\n\t\t\t\t\t\t\t<colgroup>\n\t\t\t\t\t\t\t\t<col style=\"width:26%\" />\n\t\t\t\t\t\t\t\t<col style=\"width:32%\" />\n\t\t\t\t\t\t\t\t<col style=\"width:25%\" />\n\t\t\t\t\t\t\t\t<col style=\"width:17%\" />\n\t\t\t\t\t\t\t</colgroup>\n\t\t\t\t\t\t\n\t\t\t\t\t\t\t<tr>\n\t\t\t\t\t\t\t\t<td>Selected Retirement Age</td>\n\t\t\t\t\t\t\t\t<td>:\n\t\t\t\t\t\t\t\t\t<xsl:value-of select=\"*/common/retirementAge\" />\n\t\t\t\t\t\t\t\t</td>\n\t\t\t\t\t\t\t\t<td>Retirement Income Option</td>\n\t\t\t\t\t\t\t\t<td>: Accumulated</td>\n\t\t\t\t\t\t\t</tr>\n\t\t\t\t\t\t\t\n\t\t\t\t\t\t\t<tr>\n\t\t\t\t\t\t\t\t<td>Retirement Income (p.a.)</td>\n\t\t\t\t\t\t\t\t<td>:\n\t\t\t\t\t\t\t\t\t<xsl:value-of select=\"*/common/retirementInc\" />\n\t\t\t\t\t\t\t\t</td>\n\t\t\t\t\t\t\t\t<td></td>\n\t\t\t\t\t\t\t\t<td></td>\n\t\t\t\t\t\t\t</tr>\n\t\t\t\t\t\t\t\n\t\t\t\t\t\t\t<tr>\n\t\t\t\t\t\t\t\t<td>Payout Term</td>\n\t\t\t\t\t\t\t\t<td>:\n\t\t\t\t\t\t\t\t\t<xsl:value-of select=\"*/common/payoutTerm\" />\n\t\t\t\t\t\t\t\t</td>\n\t\t\t\t\t\t\t\t<td></td>\n\t\t\t\t\t\t\t\t<td></td>\n\t\t\t\t\t\t\t</tr>\n\t\t\t\t\t\t\t\n\t\t\t\t\t\t\t<tr>\n\t\t\t\t\t\t\t\t<td>Payout Type</td>\n\t\t\t\t\t\t\t\t<td>:\n\t\t\t\t\t\t\t\t\t<xsl:value-of select=\"*/common/payoutType\" />\n\t\t\t\t\t\t\t\t</td>\n\t\t\t\t\t\t\t\t<td></td>\n\t\t\t\t\t\t\t\t<td></td>\n\t\t\t\t\t\t\t</tr>\n\t\t\t\t\t\t\t\n\t\t\t\t\t\t\t<tr>\n\t\t\t\t\t\t\t\t<td><br/></td>\n\t\t\t\t\t\t\t\t<td></td>\n\t\t\t\t\t\t\t\t<td></td>\n\t\t\t\t\t\t\t\t<td></td>\n\t\t\t\t\t\t\t</tr>\n\t\t\t\t\t\t\t\n\t\t\t\t\t\t\t<tr>\n\t\t\t\t\t\t\t\t<td>Annual Premium</td>\n\t\t\t\t\t\t\t\t<td>:\n\t\t\t\t\t\t\t\t\t<xsl:value-of select=\"*/common/annualPremium\" />\n\t\t\t\t\t\t\t\t</td>\n\t\t\t\t\t\t\t\t<td></td>\n\t\t\t\t\t\t\t\t<td></td>\n\t\t\t\t\t\t\t</tr>\n\t\t\t\t\t\t\t\n\t\t\t\t\t\t\t<tr>\n\t\t\t\t\t\t\t\t<td>Premium Payment Term</td>\n\t\t\t\t\t\t\t\t<td>:\n\t\t\t\t\t\t\t\t\t<xsl:value-of select=\"*/common/paymentTerm\" />\n\t\t\t\t\t\t\t\t</td>\n\t\t\t\t\t\t\t\t<td></td>\n\t\t\t\t\t\t\t\t<td></td>\n\t\t\t\t\t\t\t</tr>\n\t\t\t\t\t\t\t\n\t\t\t\t\t\t\t<tr style=\"border-bottom: solid 1pt black\">\n\t\t\t\t\t\t\t\t<td>Payment Mode</td>\n\t\t\t\t\t\t\t\t<td>:\n\t\t\t\t\t\t\t\t\t<xsl:value-of select=\"*/common/paymentMode\" />\n\t\t\t\t\t\t\t\t</td>\n\t\t\t\t\t\t\t\t<td>Policy Currency</td>\n\t\t\t\t\t\t\t\t<td>: \n\t\t\t\t\t\t\t\t\t<xsl:value-of select=\"*/common/polCurrency\" />\n\t\t\t\t\t\t\t\t</td>\n\t\t\t\t\t\t\t</tr>\n\t\t\t\t\t\t\t\n\t\t\t\t\t\t\t<tr>\n\t\t\t\t\t\t\t\t<td><br/></td>\n\t\t\t\t\t\t\t\t<td></td>\n\t\t\t\t\t\t\t\t<td></td>\n\t\t\t\t\t\t\t\t<td></td>\n\t\t\t\t\t\t\t</tr>\n\t\t\t\t\t\t</table>\n\t\t\t\t\t\t\n\t\t\t\t\t\t<p>The following tables of values related to the basic policy plan named above.</p>\n\t\t\t\t\t\t\n\t\t\t\t\t\t<table class=\"mtop8 w100\">\n\t\t\t\t\t\t\t<colgroup>\n\t\t\t\t\t\t\t\t<col style=\"width:13.7%\" />\n\t\t\t\t\t\t\t\t<col style=\"width:12.3%\" />\n\t\t\t\t\t\t\t\t<col style=\"width:15.2%\" />\n\t\t\t\t\t\t\t\t<col style=\"width:14.7%\" />\n\t\t\t\t\t\t\t\t<col style=\"width:14.7%\" />\n\t\t\t\t\t\t\t\t<col style=\"width:14.7%\" />\n\t\t\t\t\t\t\t\t<col style=\"width:14.7%\" />\n\t\t\t\t\t\t\t</colgroup>\n\t\t\t\t\t\t\n\t\t\t\t\t\t\t<thead>\n\t\t\t\t\t\t\t\t<tr>\n\t\t\t\t\t\t\t\t\t<th></th>\n\t\t\t\t\t\t\t\t\t<th></th>\n\t\t\t\t\t\t\t\t\t<th colspan=\"5\" class=\"bgblack tcwhite\">DEATH BENEFIT</th>\n\t\t\t\t\t\t\t\t</tr>\n\t\t\t\t\t\t\t\t\n\t\t\t\t\t\t\t\t<tr>\n\t\t\t\t\t\t\t\t\t<th colspan=\"7\"><div style = \"min-height:5px;\"></div>\n\t\t\t\t\t\t\t\t\t</th>\n\t\t\t\t\t\t\t\t</tr>\n\t\t\t\t\t\t\t\t\n\t\t\t\t\t\t\t\t<tr>\n\t\t\t\t\t\t\t\t\t<th class=\"vtop pd2\">\n\t\t\t\t\t\t\t\t\t\tEnd of\n\t\t\t\t\t\t\t\t\t\t<br/>Policy\n\t\t\t\t\t\t\t\t\t\t<br/>Year/Age\n\t\t\t\t\t\t\t\t\t\t<br/>\n\t\t\t\t\t\t\t\t\t</th>\n\t\t\t\t\t\t\t\t\t<th class=\"vtop pd2\">\n\t\t\t\t\t\t\t\t\t\tTotal\n\t\t\t\t\t\t\t\t\t\t<br/>Premiums\n\t\t\t\t\t\t\t\t\t\t<br/>Paid\n\t\t\t\t\t\t\t\t\t\t<br/>To-date\n\t\t\t\t\t\t\t\t\t</th>\n\t\t\t\t\t\t\t\t\t\n\t\t\t\t\t\t\t\t\t<th class=\"vtop pd2\">\n\t\t\t\t\t\t\t\t\t\tGuaranteed\n\t\t\t\t\t\t\t\t\t\t<br/>\n\t\t\t\t\t\t\t\t\t\t<br/>\n\t\t\t\t\t\t\t\t\t\t<br/>\n\t\t\t\t\t\t\t\t\t</th>\n\t\t\t\t\t\t\t\t\t\n\t\t\t\t\t\t\t\t\t<th colspan=\"2\" class=\"vtop pd2\">\n\t\t\t\t\t\t\t\t\t\tProjected at\n\t\t\t\t\t\t\t\t\t\t<br/>3.25% Investment\n\t\t\t\t\t\t\t\t\t\t<br/>Return\n\t\t\t\t\t\t\t\t\t\t<br/>\n\t\t\t\t\t\t\t\t\t</th>\n\t\t\t\t\t\t\t\t\t\n\t\t\t\t\t\t\t\t\t<th colspan=\"2\" class=\"vtop pd2\">\n\t\t\t\t\t\t\t\t\t\tProjected at\n\t\t\t\t\t\t\t\t\t\t<br/>4.75% Investment\n\t\t\t\t\t\t\t\t\t\t<br/>Return\n\t\t\t\t\t\t\t\t\t\t<br/>\n\t\t\t\t\t\t\t\t\t</th>\n\t\t\t\t\t\t\t\t</tr>\n\t\t\t\t\t\t\t\t\n\t\t\t\t\t\t\t\t<tr>\n\t\t\t\t\t\t\t\t\t<th></th>\n\t\t\t\t\t\t\t\t\t<th></th>\n\t\t\t\t\t\t\t\t\t<th></th>\n\t\t\t\t\t\t\t\t\t<th class=\"vtop pd2\">\n\t\t\t\t\t\t\t\t\t\tNon-Guaranteed\n\t\t\t\t\t\t\t\t\t</th>\n\t\t\t\t\t\t\t\t\t<th class=\"vtop pd2\">\n\t\t\t\t\t\t\t\t\t\tTotal\n\t\t\t\t\t\t\t\t\t</th>\n\t\t\t\t\t\t\t\t\t<th class=\"vtop pd2\">\n\t\t\t\t\t\t\t\t\t\tNon-Guaranteed\n\t\t\t\t\t\t\t\t\t</th>\n\t\t\t\t\t\t\t\t\t<th class=\"vtop pd2\">\n\t\t\t\t\t\t\t\t\t\tTotal\n\t\t\t\t\t\t\t\t\t</th>\n\t\t\t\t\t\t\t\t</tr>\n\t\t\t\t\t\t\t\t\n\t\t\t\t\t\t\t\t<tr>\n\t\t\t\t\t\t\t\t\t<th></th>\n\t\t\t\t\t\t\t\t\t<th class=\"vtop pd2\">(S$)</th>\n\t\t\t\t\t\t\t\t\t<th class=\"vtop pd2\">(S$)</th>\n\t\t\t\t\t\t\t\t\t<th class=\"vtop pd2\">(S$)</th>\n\t\t\t\t\t\t\t\t\t<th class=\"vtop pd2\">(S$)</th>\n\t\t\t\t\t\t\t\t\t<th class=\"vtop pd2\">(S$)</th>\n\t\t\t\t\t\t\t\t\t<th class=\"vtop pd2\">(S$)</th>\n\t\t\t\t\t\t\t\t</tr>\n\t\t\t\t\t\t\t</thead>\n\t\t\t\t\t\t\t\n\t\t\t\t\t\t\t<tbody>\n\t\t\t\t\t\t\t\t<xsl:for-each select=\"*/illustrationSup/deathBenefit\">\n\t\t\t\t\t\t\t\t\t<tr>\n\t\t\t\t\t\t\t\t\t\t<td class=\"tdCol\">\n\t\t\t\t\t\t\t\t\t\t\t<xsl:value-of select=\"policyYearAge\" />\n\t\t\t\t\t\t\t\t\t\t</td>\n\t\t\t\t\t\t\t\t\t\t<td class=\"tdCol\">\n\t\t\t\t\t\t\t\t\t\t\t<xsl:value-of select=\"premiumsPaidToDate\" />\n\t\t\t\t\t\t\t\t\t\t</td>\n\t\t\t\t\t\t\t\t\t\t<td class=\"tdCol\">\n\t\t\t\t\t\t\t\t\t\t\t<xsl:value-of select=\"guaranteed\" />\n\t\t\t\t\t\t\t\t\t\t</td>\n\t\t\t\t\t\t\t\t\t\t<td class=\"tdCol\">\n\t\t\t\t\t\t\t\t\t\t\t<xsl:value-of select=\"nonGuaranteedLow\" />\n\t\t\t\t\t\t\t\t\t\t</td>\n\t\t\t\t\t\t\t\t\t\t<td class=\"tdCol\">\n\t\t\t\t\t\t\t\t\t\t\t<xsl:value-of select=\"totalLow\" />\n\t\t\t\t\t\t\t\t\t\t</td>\n\t\t\t\t\t\t\t\t\t\t<td class=\"tdCol\">\n\t\t\t\t\t\t\t\t\t\t\t<xsl:value-of select=\"nonGuaranteedHigh\" />\n\t\t\t\t\t\t\t\t\t\t</td>\n\t\t\t\t\t\t\t\t\t\t<td class=\"tdCol\">\n\t\t\t\t\t\t\t\t\t\t\t<xsl:value-of select=\"totalHigh\" />\n\t\t\t\t\t\t\t\t\t\t</td>\n\t\t\t\t\t\t\t\t\t</tr>\n\t\t\t\t\t\t\t\t</xsl:for-each>\n\t\t\t\t\t\t\t</tbody>\n\t\t\t\t\t\t</table>\n\t\t\t\t\t\t\n\t\t\t\t\t</div>\n\t\n\t\t\t\t\t<div id=\"pageSV\" class=\"pagebreak\">\n\t\t\t\t\t\t<table class=\"w100\">\n\t\t\t\t\t\t\t<colgroup>\n\t\t\t\t\t\t\t\t<col style=\"width:26%\" />\n\t\t\t\t\t\t\t\t<col style=\"width:32%\" />\n\t\t\t\t\t\t\t\t<col style=\"width:25%\" />\n\t\t\t\t\t\t\t\t<col style=\"width:17%\" />\n\t\t\t\t\t\t\t</colgroup>\n\t\t\t\t\t\t\n\t\t\t\t\t\t\t<tr>\n\t\t\t\t\t\t\t\t<td>Selected Retirement Age</td>\n\t\t\t\t\t\t\t\t<td>:\n\t\t\t\t\t\t\t\t\t<xsl:value-of select=\"*/common/retirementAge\" />\n\t\t\t\t\t\t\t\t</td>\n\t\t\t\t\t\t\t\t<td>Retirement Income Option</td>\n\t\t\t\t\t\t\t\t<td>: Accumulated</td>\n\t\t\t\t\t\t\t</tr>\n\t\t\t\t\t\t\t\n\t\t\t\t\t\t\t<tr>\n\t\t\t\t\t\t\t\t<td>Retirement Income (p.a.)</td>\n\t\t\t\t\t\t\t\t<td>:\n\t\t\t\t\t\t\t\t\t<xsl:value-of select=\"*/common/retirementInc\" />\n\t\t\t\t\t\t\t\t</td>\n\t\t\t\t\t\t\t\t<td></td>\n\t\t\t\t\t\t\t\t<td></td>\n\t\t\t\t\t\t\t</tr>\n\t\t\t\t\t\t\t\n\t\t\t\t\t\t\t<tr>\n\t\t\t\t\t\t\t\t<td>Payout Term</td>\n\t\t\t\t\t\t\t\t<td>:\n\t\t\t\t\t\t\t\t\t<xsl:value-of select=\"*/common/payoutTerm\" />\n\t\t\t\t\t\t\t\t</td>\n\t\t\t\t\t\t\t\t<td></td>\n\t\t\t\t\t\t\t\t<td></td>\n\t\t\t\t\t\t\t</tr>\n\t\t\t\t\t\t\t\n\t\t\t\t\t\t\t<tr>\n\t\t\t\t\t\t\t\t<td>Payout Type</td>\n\t\t\t\t\t\t\t\t<td>:\n\t\t\t\t\t\t\t\t\t<xsl:value-of select=\"*/common/payoutType\" />\n\t\t\t\t\t\t\t\t</td>\n\t\t\t\t\t\t\t\t<td></td>\n\t\t\t\t\t\t\t\t<td></td>\n\t\t\t\t\t\t\t</tr>\n\t\t\t\t\t\t\t\n\t\t\t\t\t\t\t<tr>\n\t\t\t\t\t\t\t\t<td><br/></td>\n\t\t\t\t\t\t\t\t<td></td>\n\t\t\t\t\t\t\t\t<td></td>\n\t\t\t\t\t\t\t\t<td></td>\n\t\t\t\t\t\t\t</tr>\n\t\t\t\t\t\t\t\n\t\t\t\t\t\t\t<tr>\n\t\t\t\t\t\t\t\t<td>Annual Premium</td>\n\t\t\t\t\t\t\t\t<td>:\n\t\t\t\t\t\t\t\t\t<xsl:value-of select=\"*/common/annualPremium\" />\n\t\t\t\t\t\t\t\t</td>\n\t\t\t\t\t\t\t\t<td></td>\n\t\t\t\t\t\t\t\t<td></td>\n\t\t\t\t\t\t\t</tr>\n\t\t\t\t\t\t\t\n\t\t\t\t\t\t\t<tr>\n\t\t\t\t\t\t\t\t<td>Premium Payment Term</td>\n\t\t\t\t\t\t\t\t<td>:\n\t\t\t\t\t\t\t\t\t<xsl:value-of select=\"*/common/paymentTerm\" />\n\t\t\t\t\t\t\t\t</td>\n\t\t\t\t\t\t\t\t<td></td>\n\t\t\t\t\t\t\t\t<td></td>\n\t\t\t\t\t\t\t</tr>\n\t\t\t\t\t\t\t\n\t\t\t\t\t\t\t<tr style=\"border-bottom: solid 1pt black\">\n\t\t\t\t\t\t\t\t<td>Payment Mode</td>\n\t\t\t\t\t\t\t\t<td>:\n\t\t\t\t\t\t\t\t\t<xsl:value-of select=\"*/common/paymentMode\" />\n\t\t\t\t\t\t\t\t</td>\n\t\t\t\t\t\t\t\t<td>Policy Currency</td>\n\t\t\t\t\t\t\t\t<td>: \n\t\t\t\t\t\t\t\t\t<xsl:value-of select=\"*/common/polCurrency\" />\n\t\t\t\t\t\t\t\t</td>\n\t\t\t\t\t\t\t</tr>\n\t\t\t\t\t\t\t\n\t\t\t\t\t\t\t<tr>\n\t\t\t\t\t\t\t\t<td><br/></td>\n\t\t\t\t\t\t\t\t<td></td>\n\t\t\t\t\t\t\t\t<td></td>\n\t\t\t\t\t\t\t\t<td></td>\n\t\t\t\t\t\t\t</tr>\n\t\t\t\t\t\t</table>\n\n\t\t\t\t\t\t<table class=\"mtop8 w100\">\n\t\t\t\t\t\t\t<colgroup>\n\t\t\t\t\t\t\t\t<col style=\"width:10%\" />\n\t\t\t\t\t\t\t\t<col style=\"width:11.7%\" />\n\t\t\t\t\t\t\t\t<col style=\"width:13.9%\" />\n\t\t\t\t\t\t\t\t<col style=\"width:16.1%\" />\n\t\t\t\t\t\t\t\t<col style=\"width:16.1%\" />\n\t\t\t\t\t\t\t\t<col style=\"width:16.1%\" />\n\t\t\t\t\t\t\t\t<col style=\"width:16.1%\" />\n\t\t\t\t\t\t\t</colgroup>\n\t\t\t\t\t\t\n\t\t\t\t\t\t\t<thead>\n\t\t\t\t\t\t\t\t<tr>\n\t\t\t\t\t\t\t\t\t<th></th>\n\t\t\t\t\t\t\t\t\t<th></th>\n\t\t\t\t\t\t\t\t\t<th colspan=\"5\" class=\"bgblack tcwhite\">SURRENDER VALUE</th>\n\t\t\t\t\t\t\t\t</tr>\n\t\t\t\t\t\t\t\t\n\t\t\t\t\t\t\t\t<tr>\n\t\t\t\t\t\t\t\t\t<th colspan=\"7\"><div style = \"min-height:5px;\"></div>\n\t\t\t\t\t\t\t\t\t</th>\n\t\t\t\t\t\t\t\t</tr>\n\t\t\t\t\t\t\t\t\n\t\t\t\t\t\t\t\t<tr>\n\t\t\t\t\t\t\t\t\t<th class=\"vtop pd2\">\n\t\t\t\t\t\t\t\t\t\tEnd of\n\t\t\t\t\t\t\t\t\t\t<br/>Policy\n\t\t\t\t\t\t\t\t\t\t<br/>Year/Age\n\t\t\t\t\t\t\t\t\t\t<br/>\n\t\t\t\t\t\t\t\t\t\t<br/>\n\t\t\t\t\t\t\t\t\t</th>\n\t\t\t\t\t\t\t\t\t\n\t\t\t\t\t\t\t\t\t<th class=\"vtop pd2\">\n\t\t\t\t\t\t\t\t\t\tTotal\n\t\t\t\t\t\t\t\t\t\t<br/>Premiums\n\t\t\t\t\t\t\t\t\t\t<br/>Paid\n\t\t\t\t\t\t\t\t\t\t<br/>To-date\n\t\t\t\t\t\t\t\t\t\t<br/>\n\t\t\t\t\t\t\t\t\t</th>\n\t\t\t\t\t\t\t\t\t\n\t\t\t\t\t\t\t\t\t<th class=\"vtop pd2\">\n\t\t\t\t\t\t\t\t\t\tGuaranteed\n\t\t\t\t\t\t\t\t\t\t<br/>\n\t\t\t\t\t\t\t\t\t\t<br/>\n\t\t\t\t\t\t\t\t\t\t<br/>\n\t\t\t\t\t\t\t\t\t</th>\n\t\t\t\t\t\t\t\t\t\n\t\t\t\t\t\t\t\t\t<th colspan=\"2\" class=\"vtop pd2\">\n\t\t\t\t\t\t\t\t\t\tProjected at\n\t\t\t\t\t\t\t\t\t\t<br/>3.25% Investment\n\t\t\t\t\t\t\t\t\t\t<br/>Return\n\t\t\t\t\t\t\t\t\t\t<br/>\n\t\t\t\t\t\t\t\t\t</th>\n\t\t\t\t\t\t\t\t\t\n\t\t\t\t\t\t\t\t\t<th colspan=\"2\" class=\"vtop pd2\">\n\t\t\t\t\t\t\t\t\t\tProjected at\n\t\t\t\t\t\t\t\t\t\t<br/>4.75% Investment\n\t\t\t\t\t\t\t\t\t\t<br/>Return\n\t\t\t\t\t\t\t\t\t\t<br/>\n\t\t\t\t\t\t\t\t\t</th>\n\t\t\t\t\t\t\t\t</tr>\n\t\t\t\t\t\t\t\t\n\t\t\t\t\t\t\t\t<tr>\n\t\t\t\t\t\t\t\t\t<th></th>\n\t\t\t\t\t\t\t\t\t<th></th>\n\t\t\t\t\t\t\t\t\t<th></th>\n\t\t\t\t\t\t\t\t\t<th class=\"vtop pd2\">\n\t\t\t\t\t\t\t\t\t\tNon-Guaranteed\n\t\t\t\t\t\t\t\t\t</th>\n\t\t\t\t\t\t\t\t\t<th class=\"vtop pd2\">\n\t\t\t\t\t\t\t\t\t\tTotal\n\t\t\t\t\t\t\t\t\t</th>\n\t\t\t\t\t\t\t\t\t<th class=\"vtop pd2\">\n\t\t\t\t\t\t\t\t\t\tNon-Guaranteed\n\t\t\t\t\t\t\t\t\t</th>\n\t\t\t\t\t\t\t\t\t<th class=\"vtop pd2\">\n\t\t\t\t\t\t\t\t\t\tTotal\n\t\t\t\t\t\t\t\t\t</th>\n\t\t\t\t\t\t\t\t</tr>\n\t\t\t\t\t\t\t\t\n\t\t\t\t\t\t\t\t<tr>\n\t\t\t\t\t\t\t\t\t<th></th>\n\t\t\t\t\t\t\t\t\t<th class=\"vtop pd2\">(S$)</th>\n\t\t\t\t\t\t\t\t\t<th class=\"vtop pd2\">(S$)</th>\n\t\t\t\t\t\t\t\t\t<th class=\"vtop pd2\">(S$)</th>\n\t\t\t\t\t\t\t\t\t<th class=\"vtop pd2\">(S$)</th>\n\t\t\t\t\t\t\t\t\t<th class=\"vtop pd2\">(S$)</th>\n\t\t\t\t\t\t\t\t\t<th class=\"vtop pd2\">(S$)</th>\n\t\t\t\t\t\t\t\t</tr>\n\t\t\t\t\t\t\t</thead>\n\t\t\t\t\t\t\t\n\t\t\t\t\t\t\t<tbody>\n\t\t\t\t\t\t\t\t<!-- The last row is for Maturity value-->\n\t\t\t\t\t\t\t\t<xsl:for-each select=\"*/illustrationSup/surrenderValue\">\n\t\t\t\t\t\t\t\t\t<xsl:choose>\n\t\t\t\t\t\t\t\t\t\t<xsl:when test = \"position() != last()\">\n\t\t\t\t\t\t\t\t\t\t\t<tr>\n\t\t\t\t\t\t\t\t\t\t\t\t<td class=\"tdCol\">\n\t\t\t\t\t\t\t\t\t\t\t\t\t<xsl:value-of select=\"policyYearAge\" />\n\t\t\t\t\t\t\t\t\t\t\t\t</td>\n\t\t\t\t\t\t\t\t\t\t\t\t<td class=\"tdCol\">\n\t\t\t\t\t\t\t\t\t\t\t\t\t<xsl:value-of select=\"premiumsPaidToDate\" />\n\t\t\t\t\t\t\t\t\t\t\t\t</td>\n\t\t\t\t\t\t\t\t\t\t\t\t<td class=\"tdCol\">\n\t\t\t\t\t\t\t\t\t\t\t\t\t<xsl:value-of select=\"guaranteed\" />\n\t\t\t\t\t\t\t\t\t\t\t\t</td>\n\t\t\t\t\t\t\t\t\t\t\t\t<td class=\"tdCol\">\n\t\t\t\t\t\t\t\t\t\t\t\t\t<xsl:value-of select=\"nonGuaranteedLow\" />\n\t\t\t\t\t\t\t\t\t\t\t\t</td>\n\t\t\t\t\t\t\t\t\t\t\t\t<td class=\"tdCol\">\n\t\t\t\t\t\t\t\t\t\t\t\t\t<xsl:value-of select=\"totalLow\" />\n\t\t\t\t\t\t\t\t\t\t\t\t</td>\n\t\t\t\t\t\t\t\t\t\t\t\t<td class=\"tdCol\">\n\t\t\t\t\t\t\t\t\t\t\t\t\t<xsl:value-of select=\"nonGuaranteedHigh\" />\n\t\t\t\t\t\t\t\t\t\t\t\t</td>\n\t\t\t\t\t\t\t\t\t\t\t\t<td class=\"tdCol\">\n\t\t\t\t\t\t\t\t\t\t\t\t\t<xsl:value-of select=\"totalHigh\" />\n\t\t\t\t\t\t\t\t\t\t\t\t</td>\n\t\t\t\t\t\t\t\t\t\t\t</tr>\n\t\t\t\t\t\t\t\t\t\t</xsl:when>\n\t\t\t\t\t\t\t\t\t\t\t\n\t\t\t\t\t\t\t\t\t\t<xsl:otherwise>\n\t\t\t\t\t\t\t\t\t\t\t<tr>\n\t\t\t\t\t\t\t\t\t\t\t\t<td class=\"tdCol\" colspan=\"7\">\n\t\t\t\t\t\t\t\t\t\t\t\t\t<br/>\n\t\t\t\t\t\t\t\t\t\t\t\t</td>\n\t\t\t\t\t\t\t\t\t\t\t</tr>\n\t\t\t\t\t\t\t\t\t\t\t\n\t\t\t\t\t\t\t\t\t\t\t<tr>\n\t\t\t\t\t\t\t\t\t\t\t\t<td></td>\n\t\t\t\t\t\t\t\t\t\t\t\t<td></td>\n\t\t\t\t\t\t\t\t\t\t\t\t<th colspan=\"5\" class=\"bgblack tcwhite\">MATURITY VALUE</th>\n\t\t\t\t\t\t\t\t\t\t\t</tr>\n\t\t\t\t\t\t\t\t\t\t\t\n\t\t\t\t\t\t\t\t\t\t\t<tr>\n\t\t\t\t\t\t\t\t\t\t\t\t<td class=\"tdCol\">\n\t\t\t\t\t\t\t\t\t\t\t\t\t<xsl:value-of select=\"policyYearAge\" />\n\t\t\t\t\t\t\t\t\t\t\t\t</td>\n\t\t\t\t\t\t\t\t\t\t\t\t<td class=\"tdCol\">\n\t\t\t\t\t\t\t\t\t\t\t\t\t<xsl:value-of select=\"premiumsPaidToDate\" />\n\t\t\t\t\t\t\t\t\t\t\t\t</td>\n\t\t\t\t\t\t\t\t\t\t\t\t<td class=\"tdCol\">\n\t\t\t\t\t\t\t\t\t\t\t\t\t<xsl:value-of select=\"guaranteed\" />\n\t\t\t\t\t\t\t\t\t\t\t\t</td>\n\t\t\t\t\t\t\t\t\t\t\t\t<td class=\"tdCol\">\n\t\t\t\t\t\t\t\t\t\t\t\t\t<xsl:value-of select=\"nonGuaranteedLow\" />\n\t\t\t\t\t\t\t\t\t\t\t\t</td>\n\t\t\t\t\t\t\t\t\t\t\t\t<td class=\"tdCol\">\n\t\t\t\t\t\t\t\t\t\t\t\t\t<xsl:value-of select=\"totalLow\" />\n\t\t\t\t\t\t\t\t\t\t\t\t</td>\n\t\t\t\t\t\t\t\t\t\t\t\t<td class=\"tdCol\">\n\t\t\t\t\t\t\t\t\t\t\t\t\t<xsl:value-of select=\"nonGuaranteedHigh\" />\n\t\t\t\t\t\t\t\t\t\t\t\t</td>\n\t\t\t\t\t\t\t\t\t\t\t\t<td class=\"tdCol\">\n\t\t\t\t\t\t\t\t\t\t\t\t\t<xsl:value-of select=\"totalHigh\" />\n\t\t\t\t\t\t\t\t\t\t\t\t</td>\n\t\t\t\t\t\t\t\t\t\t\t</tr>\n\t\t\t\t\t\t\t\t\t\t</xsl:otherwise>\n\t\t\t\t\t\t\t\t\t</xsl:choose>\n\t\t\t\t\t\t\t\t</xsl:for-each>\n\t\t\t\t\t\t\t</tbody>\n\t\t\t\t\t\t</table>\n\t\t\t\t\t\t\n\t\t\t\t\t\t<br/>\n\t\t\t\t\t\t<div>\n\t\t\t\t\t\t\tThe above assumes that you have chosen to deposit the Retirement \n\t\t\t\t\t\t\tIncome with AXA to earn interest (whose rate is non-guaranteed). \n\t\t\t\t\t\t\tThe overall interest rate earned on the deposit is 3.00% p.a. \n\t\t\t\t\t\t\tThe interest rate is non-guaranteed and is reviewed as often as AXA \n\t\t\t\t\t\t\tdeems necessary.\n\t\t\t\t\t\t</div>\n\t\t\t\t\t\t\n\t\t\t\t\t\t<a href=\"#last-second-sup-page\"/>\n\t\t\t\t\t\t<span id=\"last-second-sup-page\"/>\n\t\t\t\t\t</div>\n\t\t\t\t\t\n\t\t\t\t\t<xsl:if test = \"*/basicPlan/hasOptRiders ='1'\">\n\t\t\t\t\t\t<div id=\"pageTDC\" class=\"pagebreak\">\n\t\t\t\t\t\t\t\n\t\t\t\t\t\t\t<table class=\"w100\">\n\t\t\t\t\t\t\t\t\n\t\t\t\t\t\t\t\t<tr>\n\t\t\t\t\t\t\t\t\t<td>Benefit Illustration of Rider(s)</td>\n\t\t\t\t\t\t\t\t</tr>\n\t\t\t\t\t\t\t\t\n\t\t\t\t\t\t\t\t<tr>\n\t\t\t\t\t\t\t\t\t<td>Policy Currency: Singapore Dollars</td>\n\t\t\t\t\t\t\t\t</tr>\n\t\t\t\t\t\t\t\t\n\t\t\t\t\t\t\t\t<tr style=\"border-bottom: solid 1pt black\">\n\t\t\t\t\t\t\t\t\t<td><br/></td>\n\t\t\t\t\t\t\t\t</tr>\n\t\t\t\t\t\t\t</table>\n\n\t\t\t\t\t\t\n\t\t\t\t\t\t\t\n\t\t\t\t\t\t\t<p>\n\t\t\t\t\t\t\tThis is only a supplementary illustration and must be read in conjunction \n\t\t\t\t\t\t\twith the main illustration.  \n\t\t\t\t\t\t\t</p>\n\t\t\t\t\t\t\t\n\t\t\t\t\t\t\t<p>\n\t\t\t\t\t\t\tThe following table of values relate to the supplementary benefit(s) \n\t\t\t\t\t\t\tselected.\n\t\t\t\t\t\t\t</p>\n\t\t\t\t\t\t\t\n\t\t\t\t\t\t\t<table style=\"width: 80%; margin: auto\">\n\t\t\t\t\t\t\t\t<colgroup>\n\t\t\t\t\t\t\t\t\t<col style=\"width:33%\" />\n\t\t\t\t\t\t\t\t\t<col style=\"width:33%\" />\n\t\t\t\t\t\t\t\t\t<col style=\"width:34%\" />\n\t\t\t\t\t\t\t\t\t\n\t\t\t\t\t\t\t\t</colgroup>\n\t\t\t\t\t\t\t\n\t\t\t\t\t\t\t\t<thead>\n\t\t\t\t\t\t\t\t\t<tr>\n\t\t\t\t\t\t\t\t\t\t<th></th>\n\t\t\t\t\t\t\t\t\t\t<th colspan=\"2\" class=\"bgblack tcwhite\">TOTAL DISTRIBUTION COST</th>\n\t\t\t\t\t\t\t\t\t</tr>\n\t\t\t\t\t\t\t\t\t\n\t\t\t\t\t\t\t\t\t<tr>\n\t\t\t\t\t\t\t\t\t\t<th colspan=\"3\"><div style = \"min-height:5px;\"></div>\n\t\t\t\t\t\t\t\t\t\t</th>\n\t\t\t\t\t\t\t\t\t</tr>\n\t\t\t\t\t\t\t\t\t\n\t\t\t\t\t\t\t\t\t<tr>\n\t\t\t\t\t\t\t\t\t\t<th class=\"vtop pd2\">\n\t\t\t\t\t\t\t\t\t\t\tEnd of\n\t\t\t\t\t\t\t\t\t\t\t<br/>Policy\n\t\t\t\t\t\t\t\t\t\t\t<br/>Year/Age\n\t\t\t\t\t\t\t\t\t\t\t<br/>\n\t\t\t\t\t\t\t\t\t\t</th>\n\t\t\t\t\t\t\t\t\t\t\n\t\t\t\t\t\t\t\t\t\t<th class=\"vtop pd2\">\n\t\t\t\t\t\t\t\t\t\t\tRider Premiums\n\t\t\t\t\t\t\t\t\t\t\t<br/>Paid To-date\n\t\t\t\t\t\t\t\t\t\t\t<br/>(S$)\n\t\t\t\t\t\t\t\t\t\t\t<br/>\n\t\t\t\t\t\t\t\t\t\t</th>\n\t\t\t\t\t\t\t\t\t\t\n\t\t\t\t\t\t\t\t\t\t<th class=\"vtop pd2\">\n\t\t\t\t\t\t\t\t\t\t\tTotal Distribution\n\t\t\t\t\t\t\t\t\t\t\t<br/>Cost To-date\n\t\t\t\t\t\t\t\t\t\t\t<br/>(S$)\n\t\t\t\t\t\t\t\t\t\t\t<br/>\n\t\t\t\t\t\t\t\t\t\t</th>\n\t\t\t\t\t\t\t\t\t</tr>\n\t\t\t\t\t\t\t\t\t\n\t\t\t\t\t\t\t\t</thead>\n\t\t\t\t\t\t\t\t\n\t\t\t\t\t\t\t\t<tbody>\n\t\t\t\t\t\t\t\t\t<xsl:for-each select=\"*/illustrationSup/distributionCost\">\n\t\t\t\t\t\t\t\t\t\t<tr>\n\t\t\t\t\t\t\t\t\t\t\t<td class=\"tdCol\">\n\t\t\t\t\t\t\t\t\t\t\t\t<xsl:value-of select=\"policyYearAge\" />\n\t\t\t\t\t\t\t\t\t\t\t</td>\n\t\t\t\t\t\t\t\t\t\t\t<td class=\"tdCol\">\n\t\t\t\t\t\t\t\t\t\t\t\t<xsl:value-of select=\"premiumsPaidToDate\" />\n\t\t\t\t\t\t\t\t\t\t\t</td>\n\t\t\t\t\t\t\t\t\t\t\t<td class=\"tdCol\">\n\t\t\t\t\t\t\t\t\t\t\t\t<xsl:value-of select=\"distributionCost\" />\n\t\t\t\t\t\t\t\t\t\t\t</td>\n\t\t\t\t\t\t\t\t\t\t</tr>\n\t\t\t\t\t\t\t\t\t</xsl:for-each>\n\t\t\t\t\t\t\t\t</tbody>\n\t\t\t\t\t\t\t</table>\n\t\t\t\t\t\t\t\n\t\t\t\t\t\t</div>\n\t\t\t\t\t\t\n\t\t\t\t\t\t<a href=\"#last-sup-page\"/>\n\t\t\t\t\t\t<span id=\"last-sup-page\"/>\n\t\t\t\t\t</xsl:if>\n\t\t\t\t\n\t\t\t\t</td>\n\t\t\t</tr>\n\t\t</tbody>\n\t</table>\n</div>"
        ],
        "zh-Hant": []
    },
    "type": "pdfTemplate",
    "version": 1
}