{
    "allowBackdate": "N",
    "budgetRules": [
        "RP"
    ],
    "calcAgeMethod": "nearest",
    "ccyDesc": {},
    "compCode": "08",
    "corpInd": "N",
    "covCode": "CARB",
    "covName": {
        "en": "Choice Accelerator Benefit",
        "zh-Hant": " "
    },
    "create": "KENNY.CHAN  on 15 Dec 2017 11:20:52",
    "ctyGroup": [
        "*"
    ],
    "currencies": [
        {
            "ccy": [
                "SGD"
            ],
            "country": "*"
        }
    ],
    "dealerGroup": [
        "AGENCY",
        "DIRECT",
        "SINGPOST",
        "FUSION",
        "SYNERGY"
    ],
    "effDate": "2017-12-15 02:44:26",
    "entryAge": [
        {
            "country": "*",
            "imaxAge": 60,
            "imaxAgeUnit": "nearestAge",
            "iminAge": 1,
            "iminAgeUnit": "month",
            "omaxAge": 70,
            "omaxAgeUnit": "nearestAge",
            "ominAge": 18,
            "ominAgeUnit": "year",
            "sameAsOwner": "N"
        }
    ],
    "expDate": "2018-12-15 11:26:52",
    "formulas": {
        "calcQuotFunc": "function (quotation, planInfo, planDetails) {quotCalc.calcQuotPlan(quotation, planInfo, planDetails);planInfo.sumInsured = quotation.plans[0].sumInsured;}",
        "illustrateFunc": "",
        "polTermsFunc": "",
        "premFunc": "",
        "premTermsFunc": "",
        "prepareClassConfig": "",
        "prepareSAPremConfig": "function (planDetail, quotation, planDetails) {planDetail.inputConfig.canViewSumAssured = true; planDetail.inputConfig.canViewPremium = false; for(var i in quotation.plans) { if(quotation.plans[i].covCode === planDetail.covCode){ quotation.plans[i].sumInsured = quotation.plans[0].sumInsured; }}}",
        "prepareTermConfig": "",
        "saFunc": "",
        "validAfterCalcFunc": "function (quotation, planInfo, planDetail) {quotValid.validatePlanAfterCalc(quotation, planInfo, planDetail);var targetAge = (99 - quotation.iAge);planInfo.policyTerm = \"yrs\" + targetAge;planInfo.polTermDesc = targetAge + \" Years\";planInfo.premTerm = planInfo.policyTerm;planInfo.premTermDesc = targetAge + \" Years\";planInfo.policyTermYr = targetAge;planInfo.premTermYr = targetAge;planInfo.premium = 0;planInfo.planCode = 'CARB';}",
        "validBeforeCalcFunc": "",
        "validQuotFunc": "",
        "willValidQuotFunc": ""
    },
    "genderInd": "*",
    "insuredAgeDesc": {},
    "jointLives": "N",
    "keyProdFeatures": {
        "en": "-"
    },
    "levelPrem": {},
    "licence": [
        ""
    ],
    "payMethodsDesc": {},
    "payModeDesc": {},
    "payModes": [
        {
            "covMonth": 1,
            "default": "",
            "factor": 12,
            "mode": "M",
            "operator": "D"
        },
        {
            "covMonth": 3,
            "default": "",
            "factor": 4,
            "mode": "Q",
            "operator": "D"
        },
        {
            "covMonth": 6,
            "default": "",
            "factor": 2,
            "mode": "S",
            "operator": "D"
        },
        {
            "covMonth": 12,
            "default": "",
            "factor": 1,
            "mode": "A",
            "operator": "D"
        }
    ],
    "paymentMethods": [
        "cash",
        "chequeCashierOrder",
        "eNets",
        "dbsCrCardIpp",
        "axasam",
        "crCard",
        "teleTransfter"
    ],
    "planInd": "R",
    "polMatSameAsPremMat": "N",
    "polMaturities": [],
    "polTermDesc": {},
    "polTermInd": "N",
    "polTermRule": "0",
    "policyMatSameAsBasic": "N",
    "premMatSameAsBasic": "N",
    "premMatSameAsPolMat": "N",
    "premMaturities": [],
    "premTermDesc": {},
    "premTermInd": "N",
    "premTermRule": "BT",
    "prodFeature": {},
    "prod_summary_1": 1535032,
    "productCategory": "ilp",
    "productLine": "IL",
    "ref_no": "CARB001",
    "releaseDate": "2018-04-16 14:42:21",
    "remarks": {
        "en": "-"
    },
    "saDesc": {},
    "saInput": [
        {
            "ccy": "SGD",
            "decimal": 0,
            "factor": 100
        }
    ],
    "saInputInd": "N",
    "saPostfix": {},
    "saRate": 1,
    "saRule": "BSA",
    "saScale": 0,
    "saViewInd": "Y",
    "smokeInd": "*",
    "status": "A",
    "task_desc": "Choice Accelerator Benefit",
    "type": "product",
    "upd": "KENNY.CHAN  on 10 Jan 2018 18:19:54",
    "version": 1,
    "wholeLifeInd": "N"
}